kodepos;nama;kilat_khusus
23000;Bandaaceh;31500
23363;Indrapuri;32500
23900;KOTAJANTHO;33500
23381;Kruengraya;31500
23371;Lambaro;31500
23657;Lamno;33500
23353;Lhoknga;31500
23354;Lhoong;33500
23362;Montasik;32500
23372;Peukanateuk;31500
23351;Peukanbada;33500
23500;SABANG;33500
23952;Saree;33500
23951;Seulimeum;33500
23361;Sibreh;32500
23600;Meulaboh;40000
23662;Alurbilie;41750
23654;CALANG;41750
23671;Jeuram;40750
23694;Kampungaie;41750
23681;Keudearon;39750
23672;Keudeseumot;41750
23656;Lhokruet;41750
23661;Simpangpeut;40750
23691;SINABANG;41750
23652;Suaktimah;39750
23653;Teunom;41750
23700;Tapaktuan;41000
23773;Bakongan;43000
23764;BLANGPIDIE;43000
23772;Kandang;42000
23766;Kotabahagia;43000
23771;Kotafajar;42000
23761;Labuhanhajiaceh;42000
23762;Manggeng;43000
23754;Meukek;42000
23784;Rimo;44000
23782;Subulussalam;44000
23774;Trumon;43000
24100;Sigli;38500
24173;Beureunun;38250
24167;Geumpang;41250
24183;Glumpangminyeuk;38250
24182;Kembangtanjong;38250
24164;Kotabakti;38250
24153;Laweung;38250
24184;Luengputu;39250
24186;Meureudu;39250
24163;Mila;38250
24161;Padangtiji;38250
24181;Simpangtigasigli;38250
24166;Tangse;40250
24185;Trienggading;39250
24188;Uleegle;39250
24300;Lhokseumawe;35500
24392;Alueieputeh;36500
24562;Angkup;38500
24353;Batuphat;35500
24571;Bintang;38500
24200;BIREUEN;35500
24383;Cotgirek;37500
24374;Geudong;35500
24356;Geurugok;36500
24563;Isaq;38500
24582;Janarata;38500
24263;Jeunieb;37500
24354;Kruenggeukueh;35500
24553;Lampahan;38500
24382;Lhoksukon;36500
24386;Matangkuli;36500
24261;Matanglumpangdua;37500
24394;Pantonlabu;37500
24561;Pegasing;38500
24262;Peudada;36500
24264;Samalanga;37500
24581;SIMPANGTIGA;38500
24500;TAKENGON;38500
24400;Langsa;39000
24452;Bayeun;39000
24472;Bendahara;40000
24455;Darulaman;41000
24454;Idi;41000
24475;Kualasimpang;40000
24457;Kutabinjai;42000
24453;Peureulak;40000
24478;Pulautiga;41000
24474;Rantaukualasimpang;40000
24473;Seruway;40000
24458;Simpangulim;41000
24477;Sungailiput;40000
24471;Tualangcut;39000
24600;Kutacane;35500
24653;BLANGKEJERAN;36500
24673;Lawesigalagala;35500
20000;Medan;23500
20357;Bandarbaru;24500
20372;Batangkuis;23500
20411;Belawan;24500
20355;Delitua;23500
20254;Labuhandeli;23500
20356;Namorambe;23500
20353;Pancurbatu;23500
20352;Sunggal;23500
20362;Tanjungmorawa;23500
20371;Tembung;23500
20600;Tebingtinggideli;28000
20994;Bandarkhalipah;30000
20581;Bangunpurba;28000
20552;Beringindeliserdang;29000
20991;Dolokmasihul;29000
20993;Dolokmerawan;30000
20585;Galang;28000
20500;LUBUKPAKAM;28000
21258;Pangkalandodek;30000
20987;Pantaicermin;29000
20986;Perbaungan;29000
20997;Sialangbuah;30000
21156;Sindarraya;30000
20992;Sipispis;30000
20995;SUNGAIRAMPAH;30000
20700;Binjai;30000
20883;Batangserangan;29750
20859;Besitang;31750
20774;Bohorok;31750
20351;Diski;29750
20856;Gebang;31750
20772;Kuala;29750
20771;Namuukur;30750
20857;Pangkalanbrandan;31750
20858;Pangkalansusu;30750
20762;Selesai;30750
20800;S T A B A T;29750
20773;Tanjunglangkat;30750
20853;Tanjungpura;30750
20852;Tanjungselamat;29750
20853;Binjai Secanggang;29750
20854B1;Binjai Hinai;30750
21100;Pematangsiantar;28000
21153;Bahjambi;28000
21152;Batuanam;28000
21182;Hutabayu;29000
21161;Paneitongah;28000
21174;Parapat;29000
21183;Pasarbaru;29000
21186;Pematangbandar;29000
21162;Pematangraya;29000
21181;Pematangtanahjawa;28000
21184;Perdagangan;28000
21168;Saranpadang;30000
21171;Sarimatondang;29000
21155;Serbalawan;29000
21167;Seribudolok;30000
21163;Sipintuangin;29000
21172;Tigabalata;28000
21173;Tigadolok;28000
21165;Tigarunggu;30000
21200;Kisaran;34500
21275;Aekloba;34500
21272;Airbatu;34500
21352;Baganasahan;35500
21262;Bandarpasirmandoge;36500
21274;Bandarpulau;35500
21263;Binjaiserbangan;34500
21256;Indrapura;36500
21257;Kualatanjung;36500
21254;Labuhanruku;35500
21255;Limapuluh;35500
21264;Meranti;34500
21273;Pulauraja;36500
21271;Simpangempatasahan;35500
21252;Sungaibejangkar;34500
21381;Sungaikepayang;35500
21261;Sungaisilau;34500
21300;TANJUNGBALAI;34500
21475;Tanjungleidong;36500
21253;Tanjungtiram;34500
21400;Rantauprapat;29500
21457;Aekkanopan;31500
21454;Aekkotabatu;30500
21462;Aeknabara;32500
21455;Bandardurian;30500
21464;Kotapinang;31500
21472;Labuhanbilik;32500
21465;Langgapayung;32500
21452;Merbau;32500
21471;Negerilama;31500
21461;Silangkitang;30500
21473;Sungaiberombang;31500
21463;Tanjungmedan;31500
22100;Kabanjahe;46500
22172;Barusjahe;47500
22152;Brastagi;48500
22261;Bunturaja;48500
22163;Juhar;47500
22253;Kutabuluhdairi;48500
22155;Kutabuluhkaro;47500
22164;Laubaleng;48500
22161;Munte;47500
22262;Parongil;49500
22272;SALAK;48500
22200;SIDIKALANG;48500
22284;Silalahi;48500
22271;Sukaramai;48500
22281;Sumbul;48500
22162;Tigabinanga;47500
22252;Tigalingga;48500
22154;Tiganderket;46500
22300;Balige;43500
22381;Laguboti;43500
22386;Lumbanjulu;44500
22376;Muara;44500
22383;Parsoburan;44500
22388;Pintupohanmeranti;45500
22384;Porsea;43500
22382;Silaen;43500
22400;Tarutung;47000
22461;Adiankoting;49000
22459;Bakara;48000
22457;DOLOKSANGGUL;50000
22473;Garoga;50000
22475;Lintongnihuta;49000
22454;Onanganjang;50000
22463;Onanhasang;49000
22455;Pakkat;49000
22472;Pangaribuan;50000
22456;Parlilitan;50000
22453;Parmonangan;50000
22465;Sarulla;49000
22474;Siborongborong;50000
22466;Simangumban;50000
22471;Sipahutar;50000
22452;Sipoholon;49000
22476B1;Tarutung Muara;48000
22500;Sibolga;28000
22533A;Sibolgaaekhabil;28000
22564;Barus;30000
22565;Manduamassatu;30000
22600;PANDAN;28000
22653;Pinangsori;29000
22881;Pulautello;31000
22566;Sitahuis;30000
22563;Sorkam;29000
22700;Padangsidempuan;28000
22738;Batangtoru;29000
22755;Binanga;30000
22753;Gunungtua;30000
22747;Hutapadang;29000
22952;Kayulaut;30000
22994;Kotanopan;31000
22998;Muarasipongi;31000
22983;Muarasoma;31000
22987;Natal;31000
22733;Pargarutan;31000
22764;Pasarujungbatu;31000
22919;PENYABUNGAN;31000
22774;Sayurmatinggi;29000
22976;Siabu;30000
22763;Sibuhuan;30000
22772;Sigalangan;29000
22757;Simangambat;31000
22986;Sinunukan;31000
22756;Sipiongot;31000
22742;Sipirok;29000
22736;Sitinjak;28000
22762;Sosopan;30000
22800;Gunungsitoli;47000
22871;Hiliweto;48000
22853;Lahewa;49000
22863;Sirombu;49000
22872;Tetehosi;48000
22852;Tuhemberua;48000
25000;Padang;21500
25242;Bungus;21500
25393;Muarasiberut;24500
25394;Muarasikabaluan;24500
25391;Sikakap;24500
25392;Sioban;24500
25700;TUAPEJAT;23500
25500;Pariaman;26000
25552;Kampungdalam;29000
25585;Kayutanam;27000
25581;Lubukalung;27000
25586;Pasarusang;27000
25571;Pauhkambar;26000
25584;Sicincin;26000
25563;Sungaigeringging;27000
25561;Sungailimau;26000
25573;Sungaisarik;26000
25600;Painan;27500
25666;Balaiselasa;30250
25671;Indrapurasumaterabarat;30250
25674;Lunangsatu;30250
25652;Pasarbarubayang;27250
25663;Pasarkambang;29250
25661;Pasarkuok;28250
25654;Tarusan;29250
25673;Tepan;30250
26100;Bukitinggi;26000
26192;Baso;26000
26191;Biaro;28000
26161;Empatkoto;28000
26400;LUBUKBASUNG;28000
26451;Manggopoh;28000
26471;Maninjau;27000
26162;Matur;26000
26164;Palembayan;27000
26151;Palupuh;27000
26152;Pekankamis;26000
26472;Sungaibatang;27000
26182;Sungaibuluh;28000
26473;Tiku;28000
26200;Payakumbuh;26000
26253;Dangungdangung;26000
26251;Kotobarusimalanggang;26000
26273;Muarapaiti;28000
26262;Pakanrabaagadutpayakumbuh;28000
26272;Pangkalankotabaru;28000
26263;Situjuh;26000
26255;Suliki;27000
26271;Tanjungpati;26000
26300;Lubuksikaping;30000
26373;Airbangis;33000
26381;Bonjol;30000
26367;Kinali;32000
26352;Panti;31000
26353;Rao;32000
26366;SIMPANGEMPAT;32000
26368;Simpangtigaophir;31000
26361;Talu;32000
26355;Tapus;31000
26372;Ujunggading;33000
27100;Padangpanjang;26000
27200;BATUSANGKAR;27000
27292;Buo;28000
27265;Kubukerambil;26000
27282;Padangganting;28000
27271;Rambatan;27000
27281;Saruaso;27000
27264;Simabur;26000
27294;Sungayang;27000
27263;Tabatpatah;27000
27218B1;Padangpanjang Batusangkarkota;27000
27300;Solok;26000
27371;Alahanpanjang;27000
27364;Cupak;26000
27385;Kotoanau;27000
27378;LUBUKGADANG;29000
27777;Lubukmalako;29000
27376;Muaralabuh;29000
27381;Muarapanas;26000
27351;Singkarak;27000
27354;Sulitair;27000
27388;Sungailasi;28000
27373;Surian;28000
27365;Talang;27000
27779B1;Solok Sungkai;29000
27400;Sawahlunto;27500
27681;Kotabaru;30250
27451;Muarakalaban;27250
27561;Muarobodipalangki;27250
27500;MUAROSIJUNJUNG;29250
27553;Sijunjung;29250
27453;Silungkang;27250
27674;Sitiung;30250
27600;SUNGAIDAREH;30250
27684;Sungairumbai;30250
27452;Talawi;27250
27562;Tanjungampalu;30250
27571;Tanjunggadang;29250
25572B1;Sawahlunto Kamangbaru;30250
28000;Pekanbaru;22000
28461;Airtiris;24000
28400;BANGKINANG;24000
28453;Batubersurat;25000
28458;Daludalu;26000
28686;Kandis;24000
28456;Kotalama;25000
28459;Kotatengah;25000
28371;Lipatkain;24000
28885;Minas;24000
28300;PANGKALANKERINCI;24000
28457;PASIRPENGARAIAN;25000
28772;Perawang;23000
28572;Rambahmuda;26000
28455;Rokan;25000
28771;SIAKSRIINDRAPURA;24000
28382;Soreksatu;25000
28762;Sungaiapit;25000
28454;Ujungbatu;25000
28388B1;Pekanbaru Ukui;25000
28800;Dumai;27000
28992;Baganbatu;30000
28911;BAGANSIAPIAPI;30000
28781;Batupanjang;30000
28700;BENGKALIS;30000
28882;Bukitkapur;27000
28784;Duri;29000
28983;Sedinginan;29000
28753;Selatpanjang;30000
28761;Sungaipakning;30000
28752;Telukbelitung;30000
28991;Telukmerbau;30000
28785B1;Dumai Pinggir;30000
29100;Tanjungpinang;25000
29871;Dabosingkep;28000
29872;DAIK;28000
29151;Kijang;25000
29155;Lagoi;27000
29792;Letung;28000
29154;Lobam;27000
29784;Midai;28000
29783;RANAI;28000
29782;Sedanau;28000
29873;Senayang;28000
29781;Serasan;28000
29193;Tambelan;28000
29152;Tanjunguban;27000
29791;Terempa;28000
29153;Trikora;25000
29200;Tembilahan;28500
29272;Enok;28250
29254;Khairiahmandah;31250
29274;Kotabaruseberida;31250
29271;Kualaenok;31250
29282;Kualalahang;31250
29256;Pulauburung;31250
29273;Pulaukijang;31250
29281;Sapat;31250
29255;Sungaiguntung;31250
29252;Sungaipiring;31250
29261;Sungaisalak;31250
29253;Telukpinang;31250
29300;Rengat;28500
29352;Airmolek;30500
29361;Baserah;31500
29355;Cerenti;30500
29353;Lirik;30500
29364;Lubukjambi;31500
29363;Muaralembu;31500
29371;Pangkalankasai;30500
29351;Pematangreba;29500
29354;Peranap;30500
29362;TELUKKUANTAN;31500
29400;Batam;21500
29417;Belakangpadang;21500
29664;Meral;24500
29663;Moro;24500
29661;TANJUNGBALAIKARIMUN;24500
29662;Tanjungbatu;24500
36000;Jambi;21000
36652;Bajubang;24000
36262;Danauteluk;24000
36563;Dendang;25000
36361;Kenaliasam;24000
36500;KUALATUNGKAL;25000
36371;Kumpeh;25000
36554;Merlung;24000
36654;Mersam;24000
36600;MUARABULIAN;24000
36561;MUARASABAK;25000
36653;Muaratembesi;24000
36552;Pelabuhandagang;24000
36363;Pijoan;24000
36381;SENGETI;24000
36365;Sungaibahar;24000
36556;TebingWksJambi;24000
36362;Tempino;24000
36766B1;Simpangtuan;25000
37100;Sungaipenuh;29000
37171;Hiang;29000
37173;Jujun;30000
37163;Kayuaro;30000
37174;Lempur;30000
37161;Semurup;29000
37162;Siulakderas;29000
37175;Tamiai;30000
37200;Muarabungo;28500
37256;Alaiilir;29250
37252;Kuamangkuning;29250
37271;MUARATEBO;30250
37254;Pulautemiang;29250
37261;Rantaupandan;30250
37353;Rantaupanjangtabir;30250
37253;Rimbobujang;28250
37258;Sitiungduajujuhan;30250
37272;Sungaibengkal;30250
37255;Tanahtumbuh;29250
37353B1;Muarabungo Margoyoso;29250
38000;Bengkulu;20000
38381;Airsebakul;20000
38600;ARGAMAKMUR;22000
38563;BINTUHAN;24000
38577;Cahayanegeri;20000
38655;Girimulyo;22000
38557;Kedurang;23000
38572;Kelutum;20000
38385;Kembangseri;20000
38361;Ketahun;22000
38654;Kurotidur;22000
38653;Lais;21000
38674;Lubukdurian;20000
38367;Lubukpinang;24000
38500;MANNA;23000
38571;Masat;23000
38574;Masmambang;22000
38364;Medanjayaipuh;23000
38564;Muaranasal;24000
38365;MUKOMUKO;24000
38373;Napalputih;23000
38554;Padangguci;23000
38573;Pajarbulan;23000
38371;Pekiknyaring;20000
38368;Penarik;24000
38366;Pondoksuguh;24000
38578;Rimbokedui;22000
38362;Seblat;23000
38552;Seginim;23000
38386;Tabapenanjung;21000
38576;TAIS;21000
38561;Tanjungiman;23000
39100;Curup;27000
39181;Blitarcurup;28000
39152;Karanganyarcurup;27000
39172;KEPAHIANG;28000
39164;MUARAAMAN;29000
39182;Padangulaktanding;28000
39153;Samberejo;27000
39162;Tes;29000
39171;Ujanmas;27000
31600;Lubuklinggau;27000
31664;Airbeliti;29000
31665;Jayaloka;29000
31657;Megangsakti;29000
31661;Muarabeliti;27000
31663;Muarakelingi;29000
31654;Muararupit;29000
31656;Surulangunrawas;29000
31662;Tugumulyo;27000
30000;Palembang;19000
30773;Airsaleh;22000
30656;Airsugihankanan;22000
30752;Babatsumatera;22000
30756;Bayunglincir;21000
30758;Betungbanyuasin;21000
30754;Betungsupat;22000
30662;INDRALAYA;20000
30781;Karangagungbanyuasin;22000
30600;KAYUAGUNG;21000
30663;Ketiau;21000
30772;Makartijaya;22000
30763;Mariana;19000
30753;PANGKALANBALAI;20000
30672;Pedamaran;21000
30681;Pematangpanggang;22000
30759;Pulaurimau;22000
30700;SEKAYU;22000
30757;Sekayumangunjaya;22000
30652;Sirahpulaupadang;21000
30755;Sungaililin;21000
30664;Tanjungbatusumateraselatan;21000
30671;Tanjunglubuk;21000
30661;Tanjungraja;21000
30765;Telangsatu;22000
30657;Tugumulyooki;22000
30655;Tulungselapan;22000
31100;Prabumulih;25000
31171;Gelumbang;26000
31173;Karangagung;26000
31211;Pendopo;27000
31172;Tebatagung;25000
31178B1;Prabumulih Lembak;25000
31263B1;Babat;25000
31300;Muaraenim;25000
31352;Gunungmegang;26000
31356;Pulaupanggungsemendo;26000
31355;Tanjungagung;26000
31711;Tanjungenim;25000
31400;Lahat;25000
31471;Arahan;26000
31591;Jarai;27000
31452;Kikim;26000
31462;Kotaagunglahat;26000
31592;Muarapinang;27000
31594;Padangtepung;27000
31500;PAGARALAM;27000
31593;Pendopolintang;27000
31453;Tebingtinggisumateraselatan;26000
31451B1;Lahat Kikimtengah;27000
32100;Baturaja;25000
32152;Batumarta;27000
32182;Belitang;27000
32184;Cempakaoku;27000
32161;Kurungannyawa;26000
32181;MARTAPURASUMATERA-SELATAN;26000
32155;Pengandonan;27000
32191;Peninjauan;27000
32162;Rasuan;27000
32164;Simpangmartapura;27000
32185;Sumberjayabaturaja;27000
33100;Pangkalpinang;20000
33172;Baturusa;20000
33254;Belinyu;22000
33364;Kelapa;22000
33181;KOBA;22000
33311;MENTOK;23000
33363;Parittiga;23000
33178;Payung;22000
33200;SUNGAILIAT;21000
33183;TOBOALI;23000
33362B1;Pangkalpinang Jebus;22000
33279B1;Pangkalpinang Pudingbesar;21000
33686B1;Pangkalpinang  Lubukbesar;23000
33685B1;Pangkalpinang Namang;21000
33400;Tanjungpandan;25000
33462;Gantung;27000
33471;Kelapakampit;26000
33500;MANGGAR;27000
35000;Bandarlampung;18000
35376;Ambarawalampung;19000
35595;Bakauheni;20000
35364;Branti;18000
35372;Gadingrejo;19000
35371;Gedongtataan;18000
35378;Gisting;20000
35454;Hanura;18000
35500;KALIANDA;20000
35365;Karanganyarlampung;18000
35381;Kedongdong;19000
35452;Ketibung;19000
35384;KOTAAGUNG;20000
35362;Natar;18000
35451;Padangcermin;19000
35375;Pagelaran;20000
35593;Palas;20000
35382;Pardasuka;20000
35591;Penengahan;20000
35373;Pringsewu;19000
35379;Pulaupanggunglampung;20000
35383;Putihdoh;20000
35453;Sidomulyo;19000
35374;Sukoharjolampung;19000
35377;Talangpadang;20000
35361;Tanjungbintang;18000
35363;Tegineneng;19000
35385;Wonosobolampung;21000
35221A1;Bandarlampung Telukbetungselatan;18000
35596B1;Bandarlampung Ketapang;20000
35661B1;Bandarlampung Kotaagungtimur;20000
35662B1;Bandarlampung Gunungalip;20000
35652B1;Bandarlampung Sumberrejo;18000
35675B1;Bandarlampung Pugung;20000
34100;Metro;21000
34163;Bandaragung;23000
34162;Bandarjaya;23000
34176;Bandarsari;23000
34173;Bangunrejo;22000
34181;Batanghari;21000
34161;GUNUNGSUGIH;21000
34174;Kalirejo;22000
34153;Kotagajah;21000
34198;Labuhanmaringgai;23000
34191;Pekalonganmetro;21000
34165;Poncowati;22000
34183;Pugungraharjo;23000
34152;Punggur;21000
34154;Ramanutara;22000
34157;Rumbia;23000
34182;Sekampung;21000
34156;Seputihbanyak;22000
34164;Seputihmataram;22000
34155;Seputihraman;22000
34158;Seputihsurabaya;23000
34199;Sribawono;22000
34194;SUKADANA;22000
34195;Sukarajametro;23000
34193;Tamanfajar;22000
34172;Trimurjo;21000
34196;Wayjepara;23000
34269B1;Metro Bandarmataram;23000
34500;Kotabumi;21000
34566;Banjit;23000
34561;Baradatu;23000
34564;BLAMBANGANUMPU;23000
34556;Bukitkemuning;23000
34592;Dayamurni;22000
34565;Kasui;23000
34554;Ketapangkotabumi;21000
34596;MENGGALA;23000
34555;Negararatu;22000
34558;Oganlima;21000
34552;Prokimal;21000
34594;Pulungkencono;22000
34571;Sumberjayakotabumi;23000
34582;Transpropau;22000
34557B1;Kotabumi Tanjungraja;22000
10000;Jakartapusat;12000
11000;Jakartabarat;12000
11100;Jakartatamanfatahillah;12000
12000;Jakartaselatan;12000
12700;Jakartamampang;12000
13000;Jakartatimur;12000
13300;Jakartajatinegara;12000
14000;Jakartautara;12000
14530;Pulauseribu;15000
15000;Tangerang;12500
15610;Balaraja;13500
15821;Bojongnangka;12500
15710;Cikupa;12500
15157;Ciledugtangerang;12500
15148;Cipondoh;12500
15810;Curug;12500
15134;Jatiuwung;12500
15124;Jurumudibaru;12500
15550;Keronjo;13500
15156;Kreo;12500
15154;Laranganutara;12500
15820;Legok;12500
15530;Mauk;12500
15560;Pasarkemis;12500
15520;Sepatan;12500
15510;Teluknaga;12500
15720;Tigaraksa;12500
15562;Vilatangerangregensidua;12500
15400;Ciputat;12500
15224;Pondokaren;12500
15316;Pakujaya;12500
15221;Pondokbetung;12500
15320;Serpongpuspitek;12500
15310;Serpong;12500
15330;Bumiserpongdamai;12500
16000;Bogor;12500
16620;Ciampea;12500
16720;Ciawibogor;12500
16630;Cibungbulang;12500
16740;Cigombong;13500
16660;Cigudeg;13500
16750;Cisarua;12500
16670;Jasinga;13500
16640;Leuwiliang;12500
16650;Nanggung;13500
16760;Tapos;14500
16400;Depok;12500
16500;Sawangan;12500
16514;Cinere;12500
16340;Gunungsindur;12500
16330;Parung;12500
16360;Parungpanjang;13500
16350;Rumpin;12500
16900;Cibinong;12500
16320;Bojonggede;12500
16840;Cariu;12500
16820;Cileungsi;12500
16810;Citeureup;12500
16965;Gunungputri;12500
16830;Jonggol;14500
17000;Bekasi;12500
17610;Babelan;12500
17720;Cabangbungin;13500
17340;Cibarusah;14500
17520;Cibitung;12500
17530;Cikarang;12500
17540;Kedungwaringin;14500
17550;Lemahabang;13500
17730;Muaragembong;14500
17710;Pebayuran;13500
17330;Serangbekasi;13500
17215;Setiaasih;12500
17320;Setu;12500
17630;Sukatani;13500
17620;Tambelang;12500
17510;Tambun;12500
17400;Pondokgede;12500
42100;Serang;15000
42173;Baros;15000
42186;Cikande;16000
42175;Cikeusal;15000
42164;Ciomas;15000
42182;Ciruas;15000
42191;Kasemen;15000
42185;Kibin;16000
42177;Kopo;15000
42184;Kragilan;15000
42161;Kramatwatu;15000
42168;Padarincang;16000
42176;Pamarayan;16000
42172;Petir;15000
42192;Pontang;15000
42193;Tirtayasa;16000
42200;Pandeglang;16500
42252;Banjarpandeglang;16500
42251;Cadasari;16500
42285;Cibaliung;19500
42271;Cimanuk;16500
42264;Labuan;17500
42262;Menes;16500
42281;Panimbang;18500
42275;Picung;18500
42273;Saketi;16500
42300;Rangkasbitung;16500
42355;Banjarsarilebak;18500
42393;Bayah;19500
42394;Cikotok;19500
42372;Cipanas;17500
42354;Gunungkencana;18500
42362;Leuwidamar;17500
42381;Majalebak;16500
42391;Malingping;19500
42352;Warunggunung;16500
42400;Cilegon;14000
42166;Anyerlor;14000
42454;Bojonegara;14000
40000;Bandung;15000
40391;Lembang;15000
40500;Cimahi;15000
40561;Batujajar;15000
40556;Cikalongwetan;16000
40562;Cililin;15000
40558;Cipeundeuy;16000
40551;Cisaruacimahi;17000
40565;Gununghalu;16000
40515;Margaasih;15000
40552;Ngamprah;15000
40553;Padalarang;15000
40555;Rajamandala;16000
40563;Sindangkerta;16000
40767;Cihampelas;16000
40600;Ujungberung;15000
40395;Cicalengka;15000
40393;Cileunyi;15000
40383;Cipaku;16000
40381;Ciparay;16000
40382;Majalaya;16000
40394;Rancaekek;15000
40900;Soreang;15000
40377;Banjaran;17000
40288;Bojongsoang;16000
40973;Ciwidey;15000
40258;Dayeuhkolot;15000
40971;Katapang;15000
40376;Pameungpeukbandung;15000
40378;Pangalengan;15000
41100;Purwakarta;15000
41164;Bojongpurwakarta;16000
41181;Campaka;15000
41163;Darangdan;15000
41152;Jatiluhur;15000
41166;Maniis;15000
41172;Pasawahan;15000
41162;Pleredpurwakarta;15000
41167;Sukatani;15000
41174;Wanayasa;16000
41182B1;Purwakarta Tegalwaru;23000
41165B1;Purwakarta Kotabukitindah;23000
41200;Subang;17500
41253;Binong;17500
41259;Blanakan;18500
41286;Cijambe;18500
41272;Cipeundeuysubang;18500
41257;Cipunagara;17500
41283;Cisalak;17500
41258;Compreng;18500
41281;Jalancagak;17500
41271;Kalijati;17500
41262;Pabuaran;18500
41252;Pagadenbaru;17500
41254;Pamanukan;18500
41261;Pasirbungur;18500
41263;Patokbeusi;19500
41255;Pusakanagara;18500
41282;Sagalaherang;17500
41256;Sukamandi;19500
41284;Tanjungsiang;18500
41300;Karawang;17500
41354;Batujaya;18500
41373;Cikampek;18500
41384;Cilamaya;18500
41374;Jatisari;18500
41371;Klari;17500
41383;Lemahabangwadas;18500
41355;Majalaya;17500
41362;Pangkalan;18500
41353;Pedes;17500
41382;Rawamerta;17500
41352;Rengasdengklok;17500
41381;Talagasarikarawang;17500
41385;Tempurankarawang;18500
41372;Tirtamulya;18500
43100;Sukabumi;20000
43171;Bojonglopang;21000
43155;Cibadak;20000
43159;Cicurug;21000
43161;Cikembar;20000
43176;Ciracap;23000
43152;Cisaat;20000
43166;Cisolok;22000
43197;Gegerbitung;20000
43178;Jampangkulon;22000
43168;Kalapanunggal;23000
43174;Lengkongsukabumi;22000
43156;Nagrak;20000
43196;Nyalindung;20000
43157;Parungkuda;20000
43164;Pelabuhanratu;22000
43187;Purabaya;22000
43181;Sagaranten;21000
43192;Sukaraja;20000
43179;Surade;22000
43162;Warungkiara;21000
43191B1;Sukabumi Sukalarang;20000
43200;Cianjur;18500
43283;Bojongpicung;19500
43263;Campakacianjur;19500
43262;Cibeber;18500
43275;Cidaun;21500
43291;Cikalongkulon;19500
43255;Cimacan;18500
43282;Ciranjang;18500
43268;Kadupandak;20500
43266;Pagelarancianjur;20500
43272;Sindangbarang;20500
43253;Sindanglaya;18500
43264;Sukanegara;19500
43267;Tanggeung;20500
43261;Warungkondang;18500
44100;Garut;18000
44162;Bayongbong;18000
44186;Bluburlimbangan;19000
44165;Bungbulang;20000
44169;Caringin;21000
44185;Cibatu;19000
44171;Cikajang;18000
44177;Cikelet;20000
44181;Cilawu;18000
44163;Cisurupan;18000
44153;Kadungora;18000
44182;Karangpawitan;18000
44152;Leles;18000
44188;Malangbong;19000
44175;Pameungpeuk;20000
44161;Samarang;18000
44173;Singajaya;20000
44184;Sukawening;18000
44151;Tarogong;18000
44183;Wanaraja;18000
45300;Sumedang;18000
45392;Buahdua;20000
45363;Cikeruh;18000
45353;Cimalaka;18000
45364;Cimanggung;18000
45391;Conggeang;18000
45372;Darmaraja;19000
45381;Paseh;18000
45361;Rancakalong;18000
45371;Situraja;18000
45354;Tanjungkerta;18000
45362;Tanjungsari;18000
45382;Tomo;19000
45383;Ujungjaya;19000
45367;Unpadjatinangor;19000
45373;Wado;19000
45367B1;Sumedang Ipdn;26000
46100;Tasikmalaya;20500
46187;Bantarkalong;22500
46156;Ciawi;20500
46196;Cibeureum;20500
46193;Cikatomas;23500
46198;Cineam;20500
46189;Cipatujah;22500
46153;Cisayong;20500
46151;Indihiang;20500
46186;Karangnunggal;20500
46182;Kawalu;20500
46181;Mangkubumi;20500
46197;Manonjaya;20500
46158;Pagerageung;22500
46155;Rajapolah;20500
46471;Salawu;21500
46411;SINGAPARNA;20500
46473;Sodonghilir;21500
46183;Sodonghilir/Sukaraja;20500
46474;Sodonghilir/Taraju;21500
46200;Ciamis;21000
46271;Bojong;22000
46252;Buniseuri;21000
46262;Cihaurbeuti;22000
46261;Cikoneng;21000
46253;Kawali;21000
46255;Panawangan;22000
46264;Panjalu;23000
46263;Panumbangan;22000
46254;Rajadesa;21000
46272;Sukadana;22000
46300;Banjar;21000
46383;Banjarsari;21000
46392;Cigugur;23000
46394;Cijulang;22000
46381;Cimaragas;22000
46395;Cimerak;23000
46386;Cisaga;21000
46397;Kalipucang;22000
46385;Lakbok;21000
46351;Langensari;21000
46384;Padaherang;22000
46382;Pamarican;21000
46396;Pangandaran;23000
46393;Parigibanjar;23000
46387;Rancah;22000
45100;Cirebon;15000
45162;Arjawinangun;15000
45181;Astanajapura;15000
45191;Babakan;16000
45172;Beber;15000
45188;Ciledug;16000
45167;Ciwaringin;15000
45153;Dawuancirebon;15000
45652;Dukupuntang;15000
45194;Gebang;17000
45164;Gegesik;16000
45165;Kaliwedi;16000
45152;Kapetakan;15000
45186;Karangsembung;15000
45156;Klangenan;15000
45192;Losari;16000
45173;Mundu;15000
45193;Pabedilan;16000
45161;Palimanan;15000
45163;Panguragan;16000
45154;Pleredcirebon;15000
45155;Plumbon;15000
45184;Sindanglaut;15000
45600;SUMBER;15000
45166;Susukancirebon;16000
45187;Waled;16000
45200;Indramayu;18000
45256;Anjatan;20000
45285;Balongan;18000
45272;Bangodua;19000
45262;Cikedung;18000
45263;Gabuswetan;19000
45264;Haurgeulis;20000
45273;Jatibarang;18000
45282;Juntinyuat;18000
45254;Kandanghaur;19000
45283;Karangampel;18000
45274;Kertasemaya;19000
45252;Lohbener;18000
45253;Losarang;19000
45258;Patrol;19000
45257;Sukra;20000
45400;Majalengka;18000
45464;Bantarujeg;19000
45466;Cikijing;19000
45458;Jatitujuh;19000
45454;Jatiwangi;18000
45452;Kadipaten;18000
45457;Kertajati;18000
45473;Leuwimunding;19000
45456;Ligung;19000
45461;Maja;18000
45475;Palasah;19000
45472;Rajagaluh;18000
45471;Sukahaji;18000
45455;Sumberjayamajalengka;19000
45463;Talaga;19000
45477B1;Kasokandel;18000
45500;Kuningan;17500
45591;Ciawigebang;17500
45587;Cibingbin;18500
45595;Cidahu;17500
45556;Cilimus;17500
45565;Ciniru;17500
45583;Ciwaru;17500
45562;Darma;17500
45571;Garawangi;17500
45554;Jalaksana;17500
45561;Kadugede;17500
45553;Kramatmulya;17500
45574;Lebakwangi;17500
45581;Luragung;18500
45558;Mandirancan;17500
45566;Selajambe;18500
45586;Subangkuningan;20500
52100;Tegal;22000
52194;Adiwerna;22000
52464;Balapulang;22000
52465;Bojongtegal;23000
52466;Bumijawa;23000
52192;Dukuhturi;22000
52451;Dukuhwaru;22000
52473;Jatinegarategal;23000
52472;Kedungbantengslawi;25000
52181;Kramat;22000
52461;Lebaksiu;22000
52463;Margasaritegal;23000
52462;Pagerbarang;23000
52471;Pangkah;22000
52400;SLAWI;22000
52182;Suradadi;22000
52193;Talangtegal;22000
52184;Tarub;22000
52183;Warurejo;23000
52200;Brebes;22000
52265;Banjarharjo;23000
52274;Bantarkawung;24000
52253;Bulakamba;22000
52273;Bumiayu;24000
52261;Jatibarangbrebes;22000
52264;Kersana;23000
52263;Ketanggungantimur;22000
52262;Larangan;22000
52255;Losari;23000
52276;Paguyangan;24000
52275;Salembrebes;24000
52272;Sirampog;24000
52266;Songgom;23000
52254;Tanjungbrebes;22000
52271;Tonjong;23000
52252;Wanasari;22000
52300;Pemalang;22000
52364;Ampelgadingpemalang;22000
52352;Bantarbolang;22000
52356;Belik;23000
52365;Bodeh;23000
52363;Comal;22000
52354;Moga;23000
52362;Petarukan;22000
52355;Pulosari;24000
52353;Randudongkal;23000
52361;Taman;22000
52371;Ulujami;22000
52358;Warungpring;23000
52357;Watukumpul;23000
53100;Purwokerto;22000
53163;Ajibarang;22000
53192;Banyumas;22000
53151;Baturaden;22000
53162;Cilongok;22000
53165;Gumelar;24000
53174;Jatilawang;23000
53191;Kalibagor;22000
53172;Kebasen;22000
53152;Kedungbantengbanyumas;22000
53182;Kembaran;22000
53194;Kemranjen;23000
53177;Lumbir;23000
53171;Notog;22000
53164;Pekuncen;23000
53175;Purwojati;23000
53173;Rawalo;22000
53181;Sokaraja;22000
53183;Sumbang;22000
53195;Sumpiuh;23000
53196;Tambak;23000
53176;Wangon;23000
53200;Cilacap;22000
53271;Adipala;22000
53258;Bantarsari;24000
53281;Binangun;23000
53256;Cimanggu;24000
53262;Cipari;23000
53266;Dayeuhluhur;24000
53254;Gandrungmangu;23000
53252;Jeruklegi;23000
53255;Karangpucung;24000
53273;Karangtengahsampang;23000
53253;Kawunganten;23000
53263;Kedungreja;24000
53274;Kesugihan;22000
53282;Kroya;23000
53257;Majenang;24000
53272;Maos;22000
53283;Nusawungu;23000
63264;Patimuan;24000
53261;Sidareja;23000
53265;Wanareja;24000
53300;Purbalingga;22000
53353;Bobotsari;22000
53362;Bojongsari;25000
53382;Bukateja;22000
53391;Kaligondang;22000
53371;Kalimanah;22000
53354;Karanganyarpurbalingga;22000
53355;Karangmoncol;23000
53357;Karangrejopurbalingga;24000
53392;Kejobong;22000
53381;Kemangkon;22000
53358;Kertanegara;22000
53361;Kutasari;24000
53352;Mrebet;22000
53372;Padamara;22000
53393;Pengadegan;22000
53356;Rembangpurbalingga;23000
53359B1;Purbalingga Karangjambu;23000
53400;Banjarnegara;22000
53452;Banjarmangu;23000
53456;Batur;23000
53471;Bawang;22000
53459;Dieng;24000
53458;Kalibening;23000
53453;Karangkobar;23000
53474;Klampok;23000
53482;Madukara;22000
53473;Mandiraja;22000
53455;Pagentan;23000
53454;Pejawaran;23000
53462;Punggelan;22000
53472;Purwonegoro;22000
53463;Rakit;22000
53481;Sigaluh;22000
53475;Susukan;23000
53457;Wanayasabanjarnegara;23000
53461;Wonodadi;22000
54300;Kebumen;20500
54363;Adimulyo;20500
54352;Alian;20500
54392;Ambal;20500
54473;Ayah;21500
54474;Buayan;21500
54391;Buluspesantren;20500
54411;Gombong;20500
54364;Karanganyar;20500
54365;Karanggayam;20500
54381;Klirong;20500
54393;Kutowinangun;20500
54366;Kuwarasan;21500
54395;Mirit;20500
54361;Pejagoan;20500
54382;Petanahan;20500
54394;Prembun;20500
54383;Puring;21500
54472;Rowokele;21500
54353;Sadang;21500
54471;Sempor;21500
54362;Sruweng;20500
50000;Semarang;16500
59500;DEMAK;17500
59573;Dempet;18500
59581;Gajah;17500
59582;Karanganyardemak;17500
59566;Karangawen;16500
59561;Karangtengahdemak;16500
59567;Mranggen;16500
59563;Sayung;16500
59567A;Semarang Pucanggading;16500
59554;Wedung;17500
50500;Ungaran;17500
50612;Ambarawa;17500
50665;Bandungan;18500
50664;Banyubiru;17500
50661;Bawen;17500
50552;Bergas;17500
50663;Jambu;17500
50553;Pringapus;19500
50662;Sumowono;17500
50700;Salatiga;19000
50772;Bringin;19000
50774;Getasan;19000
50778;Kaliwungu;20000
50776;Suruh;19000
50777;Susukan;19000
50775;Tengaran;19000
50773;Tuntang;19000
51100;Pekalongan;22000
51254;Bandarsidayu;23000
51200;BATANG;22000
51274;Bawangbatang;24000
51255;Blado;23000
51156;Bojongpekalongan;22000
51171;Buaran;22000
51191;Doro;22000
51281;Gringsing;24000
51161;Kajen;23000
51163;Kandangserang;23000
51182;Karanganyarpekalongan;23000
51173;Kedungwuni;22000
51162;Kesesi;23000
51271;Limpung;24000
51164;Paninggaran;23000
51172;Pekajangan;22000
51273;Reban;23000
51155;Sragi;22000
51262;Subah;23000
51272;Tersono;23000
51261;Tulis;22000
51252;Warungasem;22000
51152;Wiradesa;22000
51181;Wonopringgo;22000
51253;Wonotunggal;23000
51300;Kendal;18500
51381;Boja;19500
51371;Brangsong;18500
51352;Cepiring;18500
51356;Gemuh;18500
51372;Kaliwungu;19500
51383;Limbangan;20500
51361;Pageruyung;19500
51364;Patean;19500
51357;Pegandon;18500
51362;Plantungan;19500
51382;Singorojo;20500
51363;Sukorejokendal;19500
51355;Weleri;18500
56100;Magelang;18500
56151;Bandongan;18500
56171;Banyurojo;18500
56552;Blabak;19500
56553;Borobudur;18500
56482;Dukunmagelang;18500
56196;Grabag;18500
56153;Kaliangkrik;19500
56500;KOTAMUNGKID;18500
56411;Muntilan;18500
56194;Ngablak;19500
56485;Ngluwar;19500
56193;Pakismagelang;18500
56484;Salam;19500
56162;Salaman;18500
56481;Sawanganmagelang;18500
56195;Secang;18500
56192;Tegalrejo;18500
56161;Tempuran;18500
56200;Temanggung;19500
56257;Candiroto;19500
56282;Kaloran;21500
56281;Kandangan;20500
56252;Kedu;19500
56271;Kranggan;19500
56255;Ngadirejo;19500
56254;Parakan;19500
56272;Pringsurat;19500
56261;Tembarak;19500
56300;Wonosobo;22000
56353;Garung;22000
56375;Kalibawang;23000
56372;Kalikajar;22000
56364;Kaliwiro;22000
56354;Kejajar;22000
56374;Kepil;23000
56371;Kerteg;22000
56362;Leksono;22000
56351;Mojotengah;23000
56373;Sapuran;22000
56361;Selomerto;22000
56363;Sukoharjowonosobo;22000
56365;Wadaslintang;23000
56352;Watumalang;24000
57100;Solo;16500
57553;Bekonang;16500
57177;Colomadu;16500
57773;Gondangrejo;16500
57168;Kartasura;16500
57772;Ngringo;16500
57200;Sragen;19000
57262;Gesi;19000
57294;Jambangan;19000
57256;Jenar;20000
57275;Kalijambe;20000
57291;Karangmalangsragen;19000
57292;Kedawung;19000
57255;Kedungbanteng;19000
57282;Masaran;19000
57276;Miri;20000
57271;Mondokan;20000
57252;Ngrampal;19000
57283;Plupuh;20000
57273;Salem;20000
57293;Sambirejo;19000
57253;Sambungmacan;19000
57281;Sidoharjo;19000
57263;Sukodonosragen;19000
57272;Sumberlawang;20000
57261;Tangen;20000
57277;Tanon;19000
57300;Boyolali;19000
57352;Ampel;19000
57384;Andong;21000
57373;Banyudono;19000
57362;Cepogo;19000
57391;Juwangi;21000
57381;Karanggede;21000
57385;Klego;21000
57371;Mojosongo;19000
57361;Musuk;19000
57375;Ngemplak;19000
57378;Nogosari;20000
57376;Sambi;19000
57374;Sawit;19000
57377;Simo;21000
57372;Teras;19000
57382;Wonosegoro;21000
57383;Kemusu;21000
57400;Klaten;19500
57462;Bayat;19500
57463;Cawas;19500
57465;Ceper;19500
57471;Delangu;19500
57455;Gantiwarno;21500
57453;Gondangwinangun;19500
57481;Jatinom;19500
57472;Juwiring;19500
57475;Karanganom;19500
57464;Karangdowo;19500
57483;Karangnongko;20500
57486;Kebonarum;19500
57485;Manisrenggo;19500
57466;Ngawenklaten;19500
57468;Pedan;19500
57474;Polanharjo;19500
57454;Prambanan;19500
57467;Trucuk;19500
57482;Tulung;19500
57461;Wedi;19500
57473;Wonosariklaten;19500
57500;Sukoharjo;17500
57556;Baki;17500
57572;Bendosari;17500
57563;Bulusukoharjo;17500
57557;Gatak;17500
57552;Grogol;18500
57571;Nguter;17500
57555;Polokarto;18500
57561;Tawangsari;17500
57562;Weru;17500
57600;Wonogiri;19000
57673;Baturetno;20000
57674;Batuwarno;20000
57697;Bulukerto;21000
57663;Eromoko;20000
57683;Girimarto;19000
57676;Giritontro;20000
57675;Giriwoyo;20000
57693;Jatipurno;19000
57692;Jatiroto;20000
57691;Jatisrono;19000
57696;Kismantoro;21000
57662;Manyaran;20000
57681;Ngadirojowonogiri;19000
57671;Nguntoronadi;19000
57664;Pracimantoro;20000
57695;Purwantoro;20000
57652;Selogiri;19000
57682;Sidoharjowonogiri;19000
57694;Slogohimo;20000
57672;Tirtomoyo;20000
57661;Wuryantoro;19000
57700;Karanganyar;17500
57771;Jaten;17500
57784;Jatipuro;17500
57785;Jatiyoso;17500
57794;Jenawi;17500
57782;Jumantono;17500
57783;Jumapolo;17500
57791;Karangpandan;17500
57762;Kebakkramat;17500
57753;Kerjo;17500
57781;Matesih;17500
57752;Mojogedang;17500
57793;Ngargoyoso;17500
57761;Tasikmadu;17500
57792;Tawangmangu;17500
58100;Purwodadigrobogan;20000
58183;Gabus;21000
58152;Grobogan;20000
58162;Godong;20000
58164;Gubug;21000
58172;Gundih;20000
58163;Karangrayung;21000
58167;Kedungjati;21000
58182;Kuwu;21000
58193;Ngaringan;22000
58165;Tegowanu;21000
58171;Toroh;20000
58192;Wirosari;20000
58200;Blora;22000
58253;Banjarejo;22000
58262;Bogorejo;22000
58312;Cepu;23000
58257;Japah;22000
58384;Jatidoplang;23000
58261;Jepon;22000
58372;Jiken;22000
58381;Kedungtuban;23000
58255;Kunduran;22000
58383;Menden;22000
58254;Ngawen;22000
58382;Randublatung;23000
58371;Sambong;22000
58256;Todanan;23000
58252B1;Blora Tunjungan;22000
59100;Pati;21000
59255;Bulu;23000
59157;Cluwak;22000
59158;Dukuhseti;22000
59173;Gabus;21000
59162;Gembong;21000
59184;Jaken;22000
59182;Jakenan;21000
59185;Juwana;21000
59171;Kayen;21000
59273;Kragan;23000
59271;Lasem;22000
59163;Margorejo;21000
59154;Margoyoso;21000
59261;Pamotan;22000
59183;Pucakwangi;21000
59200;REMBANG;22000
59265;Sale;23000
59274;Sarang;23000
59264;Sedan;23000
59272;Sluke;23000
59172;Sukolilo;23000
59254;Sulang;22000
59174;Tambakromo;23000
59155;Tayu;22000
59161;Tlogowungu;21000
59153;Trangkil;21000
59152;Wedarijaksa;21000
59181;Winong;21000
59300;Kudus;19500
59352;Bae;19500
59353;Dawe;20500
59354;Gebog;19500
59371;Jati;19500
59382;Jekulo;19500
59361;Kaliwungukudus;19500
59381;Mejobo;19500
59372;Undaan;19500
59400;Jepara;21500
59453;Bangsrijepara;21500
59461;Batealit;21500
59467;Kalinyamatan;22500
59455;Karimunjawa;22500
59463;Kedung;21500
59454;Keling;22500
59465;Mayong;21500
59452;Mlonggo;21500
59456;Pakisaji;22500
59462;Pecangaan;21500
59464;Welahan;22500
55000;Yogyakarta;16500
55197;Banguntapan;16500
55573;Berbah;16500
55583;Cangkringan;16500
55294;Gamping;16500
55564;Godean;16500
55571;Kalasan;16500
55585;Kaliurang;17500
55181;Kasihan;18500
55753;Kemusuk;18500
55562;Minggir;16500
55586;Minomartani;16500
55563;Moyudan;16500
55581;Ngaglik;16500
55584;Ngemplak;16500
55582;Pakem;16500
55792;Piyungan;16500
55572;Prambanansleman;16500
55752;Sedayu;16500
55188;Sewon;16500
55561;Seyegan;16500
55500;SLEMAN;16500
55552;Tempel;16500
55551;Turi;16500
54100;Purworejo;20500
54174;Bagelen;20500
54171;Banyuurip;20500
54152;Bayan;20500
54183;Bener;20500
54261;Bruno;21500
54264;Butuh;20500
54191;Gebangpurworejo;20500
54175;Kaligesing;20500
54262;Kemiri;20500
54212;Kutoarjo;20500
54181;Loano;20500
54172;Ngombol;20500
54263;Pituruh;20500
54173;Purwodadikedu;20500
54266;Sangubanyu;20500
55600;Watesyogya;19000
55662;Brosot;19000
55674;Girimulyo;20000
55672;Kalibawang;20000
55653;Kokap;21000
55663;Lendah;19000
55671;Nanggulan;19000
55655;Panjatan;19000
55652;Pengasih;19000
55673;Samigaluh;20000
55664;Sentolo;19000
55654;Temonyogya;19000
55700;Bantul;18000
55764;Bambanglipuro;18000
55783;Dlingo;18000
55782;Imogiri;18000
55781;Jetisbantul;18000
55772;Kretek;18000
55751;Pajangan;18000
55761;Pandak;18000
55791;Pleretbantul;18000
55771;Pundong;18000
55763;Sanden;18000
55762;Srandakan;18000
55800;Wonosariyogya;20500
55891;Karangmojo;20500
55853;Ngawenyogya;20500
55852;Nglipar;20500
55871;Paliyan;20500
55872;Panggang;20500
55862;Patuk;20500
55861;Playen;20500
55892;Ponjong;20500
55883;Rongkop;20500
55893;Semanu;20500
55854;Semin;20500
55881;Tepus;20500
60000;Surabaya;17500
60400;Surabayaselatan;17500
61100;Gresik;19000
61173;Balongpanggang;19000
61181;Bawean;20000
61152;Bungah;20000
61171;Cerme;19000
61177;Driyorejo;20000
61162;Duduksampeyan;19000
61155;Dukun;20000
61151;Manyar;19000
61174;Menganti;19000
61156;Panceng;20000
61153;Sidayu;20000
61176B1;Gresik Wringinanom;20000
61154B1;Ujungpangkah;20000
61200;Sidoarjo;24500
61252;Buduran;24500
61254;Gedangan;24500
61275;Krembung;24500
61262;Krian;24500
61274;Porong;24500
61264;Prambonsidoarjo;24500
61253;Sedati;24500
61257;Sepanjang;24500
61258;Sukodonosidoarjo;24500
61272;Tanggulangin;24500
61265;Tarik;25500
61259;Trosobo;24500
61273;Tulangan;24500
61256;Waru;24500
61261;Wonoayu;24500
61263B1;Sidoarjo Balongbendo;25500
61276B1;Sidoarjo Jabon;24500
61300;Mojokerto;16500
61381;Bangsal;16500
61361;Brangkal;16500
61354;Dawarblandong;17500
61371;Dlanggu;16500
61351;Gedek;16500
61352;Jetismojokerto;16500
61353;Kemlagi;17500
61382;Mojosari;16500
61385;Ngoromojokerto;16500
61374;Pacet;16500
61372;Pugeran;16500
61375;Trawas;17500
61362;Trowulan;16500
61383B1;Mojokerto Puri;16500
61373B1;Mojokerto Mojoanyar;16500
61364B1;Mojokerto Jatirejo;16500
61363B1;Mojokerto Kutorejo;16500
61384B1;Mojokerto Pungging;16500
61400;Jombang;21500
61462;Bandarkedungmulyo;21500
61474;Bareng;21500
61472;Diwek;21500
61463;Gudo;21500
61485;Jogoroto;21500
61455;Kabuh;21500
61484;Kesambenjombang;21500
61454;Kudu;21500
61482;Mojoagung;22500
61475;Mojowarno;22500
61473;Ngoro;21500
61461;Perak;21500
61481;Peterongan;21500
61453;Ploso;21500
61483;Sumobito;21500
61452;Tembelang;21500
61476;Wonosalam;22500
61457B1;Jombang Megaluh;21500
62100;Bojonegoro;23000
62192;Baureno;24000
62171;Dander;23000
62173;Gondang;23000
62152;Kalitidu;23000
62164;Kasiman;24000
62195;Kedungadem;24000
62165;Ngraho;25000
62162;Padangan;24000
62183;Sugihwaras;24000
62191;Sumberrejo;23000
62166;Tambakrejo;24000
62154;Ngasem;23000
62194;Bojonegoro Kepohbaru;24000
62200;Lamongan;20500
62271;Babad;20500
62274;Bluluk;21500
62263;Brondong;21500
62292;Glagah;20500
62293;Karangbinangun;21500
62254;Karanggeneng;20500
62272;Kedungpring;21500
62262;Laren;21500
62283;Mantup;20500
62275;Modo;21500
62273;Ngimbang;21500
62264;Paciran;21500
62261;Sekaran;20500
62265;Solokuro;21500
62256;Sugio;20500
62253;Sukodadi;20500
62281;Tikung;21500
62284;Lamongan Kembangbahu;20500
62282;Lamongan Sambeng;21500
62300;Tuban;23000
62354;Bancar;24000
62364;Bangilan;24000
62362;Jatirogo;25000
62352;Jenu;23000
62361;Jojogan;25000
62356;Kerek;24000
62355;Merakurak;23000
62391;Palang;23000
62382;Plumpang;23000
62371;Rengel;24000
62372;Soko;24000
62353;Tambakboyo;24000
62357;Montong;24000
62383;Widang;24000
62366;Tuban Parengan;24000
62373;Tuban Grabagan;23000
63100;Madiun;25000
63152;Balerejo;25000
63153;Caruban;25000
63172;Dagangan;25000
63174;Delopo;26000
63156;Gemarang;26000
63161;Jiwan;25000
63182;Karee;26000
63173;Kebonsari;26000
63151;Nglames;25000
63154;Pilangkenceng;25000
63155;Saradan;25000
63171;Uteran;25000
63157;Wonoasri;25000
63181;Wungu;25000
63162B1;Madiun Sawahan;25000
63200;Ngawi;25000
63271;Geneng;25000
63262;Jogorogo;26000
63284;Karangjati;25000
63254;Kedunggalar;25000
63261;Kendalngawi;26000
63283;Kwadungan;25000
63257;Mantingan;26000
63263;Ngrambe;26000
63281;Padas;27000
63282;Pangkur;25000
63253;Paron;25000
63264;Sine;26000
63255;Walikukun;26000
63300;Magetan;25000
63393;Barat;25000
63381;Goranggareng;25000
63395;Karangrejo;25000
63372;Lembeyan;26000
63392;Maospati;25000
63371;Parang;26000
63361;Plaosan;25000
63383;Takeran;25000
63352;Panekan;25000
63351B1;Magetan Ngariboyo;25000
63400;Ponorogo;25000
63581;Arjosari;27000
63491;Babadan;25000
63455;Badegan;25000
63461;Balong;25000
63492;Jenangan;25000
63473;Jetis;25000
63561;Kebonagung;27000
63572;Ngadirojo;27000
63500;PACITAN;27000
63481;Pulung;25000
63553;Punung;27000
63474;Sambit;25000
63454;Sampung;25000
63463;Slahung;25000
63452;Sumoroto;26000
63582;Tegalombo;26000
63571;Tulakan;27000
63573;Ponorogo Sudimoro;27000
64100;Kediri;23500
64221;Badas;24500
64157;Banyakan;23500
64182;Gampengrejo;23500
64151;Grogolkediri;24500
64181;Gurah;23500
64294;Kandanganpare;24500
64173;Kandat;23500
64293;Kepung;24500
64172;Kras;23500
64156;Kunjang;24500
64162;Mojo;24500
64171;Ngadiluwih;23500
64291;Ngancar;24500
64184;Ngasem;26500
64183;Pagu;23500
64153;Papar;23500
64200;Pare;23500
64155;Plemahan;24500
64175;Plosoklaten;24500
64154;Purwoasri;23500
64176;Ringinrejo;23500
64161;Semen;23500
64152;Tarokan;23500
64174;Wateskediri;23500
64400;Nganjuk;24000
64461;Bagor;24000
64394;Baron;24000
64473;Berbek;24000
64451;Gondang;24000
64392;Jatikalen;25000
64311;Kertosono;25000
64393;Lengkong;25000
64471;Loceret;24000
64474;Ngetos;24000
64395;Ngronggot;25000
64472;Pace;24000
64391;Patianrowo;25000
64484;Prambon;25000
64453;Rejoso;24000
64475;Sawahannganjuk;25000
64481;Sukomoro;24000
64482;Warujayeng;24000
64462B1;Nganjuk Wilangan;24000
65100;Malang;20000
65183;Ampelgading;22000
65179;Bantur;22000
65300;Batu;20000
65171;Bululawang;20000
65331;Bumiaji;20000
65181;Dampit;21000
65167;Donomulyo;22000
65178;Gedangan;22000
65174;Gondanglegi;21000
65155;Jabung;21000
65166;Kalipare;21000
65152;Karangploso;20000
65393;Kasembon;22000
65161;Kebonagungmalang;20000
65163;Kepanjen;20000
65211;Lawang;20000
65164;Ngajum;20000
65392;Ngantang;21000
65154;Pakis;20000
65391;Pujon;21000
65151;Sengkaling;20000
65153;Singosari;20000
65169;Sumbermanjingkulon;21000
65176;Sumbermanjingwetan;21000
65165;Sumberpucung;21000
65156;Tumpang;20000
65175;Turen;21000
65158;Wagir;21000
65173;Wajak;21000
65321;Malang Poncokusumo;21000
65157B1;Malang Pagelaran;21000
65191B1;Malang Kromengan;21000
65177B1;Malang Junrejo;20000
66100;Blitar;25000
66193;Binangunblitar;26000
66186;Doko;26000
66187;Gandusariblitar;25000
66182;Garum;25000
66161;Kademangan;25000
66171;Kanigoro;25000
66191;Kesamben;26000
66172;Lodoyo;25000
66181;Nglegok;25000
66153;Ponggok;25000
66151;Sanankulon;25000
66152;Srengat;25000
66183;Talun;25000
66154;Udanawu;25000
66184;Wlingi;25000
66155;Wonodadi;25000
66200;Tulungagung;25000
66274;Bandungtulungagung;25000
66275;Besukitulungagung;25000
66271;Boyolangu;25000
66272;Campurdarat;25000
66363;Dongko;27000
66381;Durenan;25000
66372;Gandusari;26000
66263;Gondangtulungagung;25000
66261;Kalangbret;25000
66281;Kalidawir;25000
66373;Kampak;26000
66361;Karangantrenggalek;26000
66253;Karangrejo;25000
66365;Munjungan;27000
66252;Ngantru;25000
66292;Ngunut;25000
66262;Pagerwojo;26000
66273;Pakel;25000
66364;Panggul;28000
66371;Pogalan;25000
66284;Pucanglaban;26000
66362;Pule;27000
66293;Rejotangan;25000
66254;Sendang;25000
66291;Sumbergempol;25000
66300;TRENGGALEK;26000
66352;Tugu;26000
66382;Watulimo;26000
67100;Pasuruan;21000
67153;Bangil;21000
67154;Beji;21000
67155;Gempol;22000
67174;Gondangwetan;21000
67184;Grati;21000
67172;Kejayan;21000
67151;Kratonpasuruan;21000
67186;Lekok;21000
67185;Nguling;21000
67165;Nongkojajar;22000
67156;Pandaan;22000
67175;Pasrepan;21000
67157;Prigen;22000
67163;Purwodadipasuruan;22000
67162;Purwosari;22000
67181;Rejosopasuruan;21000
67152;Rembang;22000
67161;Sukorejopasuruan;22000
67182;Winongan;21000
67173;Wonorejo;21000
67171B1;Pasuruan Pohjentrek;21000
67177B1;Tosari;22000
67183B1;Lumbang;21000
67200;Probolinggo;23000
67261;Bantaran;23000
67275;Banyuanyar;23000
67283;Besuk;24000
67271;Dringu;23000
67285;Gading;24000
67272;Gending;23000
67293;Kotaanyar;24000
67282;Kraksaan;24000
67288;Krucil;24000
67273;Leces;23000
67276;Maron;23000
67291;Paiton;24000
67281;Pajarakan;23000
67292;Pakuniran;24000
67254;Sukapura;25000
67251;Sumberasih;23000
67252;Tongas;24000
67253;Wonomerto;23000
67300;Lumajang;25000
67373;Candipuro;25000
67353;Gucialit;25000
67355;Jatiroto;25000
67356;Klakah;26000
67383;Kunir;25000
67372;Pasirian;25000
67374;Pronojiwo;26000
67354;Randuagung;26000
67357;Ranuyoso;26000
67361;Senduro;25000
67352;Sukodono;25000
67371;Tempeh;25000
67375;Tempursari;26000
67382;Yosowilangun;25000
68100;Jember;25000
68172;Ambulu;25000
68161;Balung;25000
68154;Bangsalsari;26000
68165;Gumukmas;26000
68192;Jelbug;25000
68171;Jenggawah;25000
68193;Kalisat;25000
68163;Kasiyan;26000
68167;Kencong;26000
68196;Ledokombo;26000
68182;Mayang;25000
68174;Mumbulsari;25000
68153;Panti;25000
68152;Rambipuji;25000
68183;Sempolan;26000
68194;Sukowono;25000
68156;Sumberbaru;26000
68155;Tanggul;26000
68173;Tempurejo;25000
68166;Umbulsari;26000
68162;Wuluhan;26000
68168B1;Jombang;26000
68175B1;Jember Semboro;26000
68195B1;Jember Ajung;25000
68157B1;Jember Sumberjambe;26000
68200;Bondowoso;25000
68286;Cermeebondowoso;26000
68261;Grujugan;25000
68262;Maesan;25000
68285;Prajekan;25000
68271;Pujer;25000
68287;Sukosari;25000
68263;Tamanan;25000
68281;Tenggarang;25000
68282;Wonosaribesuki;25000
68252;Wringin;25000
68284B1;Bondowoso Curahdami;25000
68272B1;Bondowoso Tlogosari;25000
68251B1;Bondowoso Klabang;25000
68300;Situbondo;25000
68371;Arjasasitubondo;25000
68373;Asembagus;26000
68374;Banyuputih;26000
68356;Besuki;26000
68372;Jangkar;25000
68362;Kapongan;25000
68352;Kendit;25000
68353;Mlandingan;26000
68351;Panarukan;25000
68354;Suboh;26000
68355;Sumbermalang;27000
68359;Situbondo Mangaran;26000
68363B1;Situbondo Bayunglugur;27000
68400;Banyuwangi;25000
68487;Bangorejo;26000
68481;Benculuk;26000
68465;Genteng;26000
68466;Glenmore;26000
68485;Jajag;26000
68461;Kabat;25000
68467;Kalibaru;27000
68452;Ketapanggiri;25000
68472;Muncar;26000
68488;Pesanggaran;26000
68483;Purwoharjo;26000
68462;Rogojampi;25000
68468;Sempu;26000
68489;Siliragung;27000
68464;Singojuruh;25000
68463;Songgon;25000
68471;Srono;25000
68484;Tegaldlimo;26000
68486;Tegalsari;27000
68453;Wongsorejo;26000
68451;Giri;25000
69100;Bangkalan;19500
69151;Arosbaya;19500
69174;Balega;20500
69263;Banyuates;20500
69171;Burneh;19500
69281;Camplongsampang;21500
69173;Galis;19500
69272;Jrengik;20500
69162;Kamal;20500
69164;Kebanyar;19500
69252;Kedungdung;20500
69261;Ketapangsampang;20500
69153;Klampis;20500
69163;Labang;20500
69166;Modung;20500
69291;Omben;21500
69254;Robatal;21500
69200;SAMPANG;21500
69154;Sapulu;19500
69161;Socah;20500
69262;Sokobanah;21500
69172;Tanahmerahbangkalan;19500
69156;Tanjungbumi;20500
69271;Torjun;20500
69292;Bangkalan Geger;19500
69155;Bangkalan Kokop;20500
69152;Bangkalan Tragah;19500
69165;Bangkalan Konang;20500
69175;Bangkalan Karangpenang;21500
69300;Pamekasan;24000
69354;Batumarmar;25000
69382;Galis;24000
69355;Kadur;24000
69384;Laranganmadura;24000
69381;Pademawu;24000
69352;Pakong;24000
69362;Palengaan;24000
69356;Pasean;25000
69361;Pegantenan;24000
69363;Proppo;24000
69371;Tlanakan;24000
69353;Warupamekasan;25000
69400;Sumenep;25000
69455;Ambunten;25000
69491;Arjasa;26000
69473;Batangbatang;25000
69466;Bluto;25000
69474;Dungkek;26000
69462;Ganding;26000
69472;Gapura;25000
69483;Gayam;26000
69482;Giligenting;25000
69463;Gulukguluk;25000
69471;Kalianget;25000
69461;Lenteng;25000
69452;Manding;25000
69492;Masalembu;26000
69457;Pasongsongan;26000
69464;Prenduan;25000
69493;Sapeken;26000
69467;Saronggi;25000
69454;Dasuk;25000
69456B1;Sumenep Batuputih;25000
69453B1;Sumenep Rubaru;25000
70000;Banjarmasin;24500
70564;Anjirmuara;24500
70565;Anjirpasar;25500
70562;Barambai;27500
70563;Belawang;26500
70582;Berangas;24500
70552;Kuripan;26500
70581;Mandastana;24500
70500;MARABAHAN;26500
70561;Rantaubadauh;25500
70566;Tamban;25500
70700;Banjarbaru;27500
70655;Aluhaluh;28250
70852;Batibati;27250
70872;Batutungku;29250
70672;Danausalak;28250
70652;Gambut;27250
70661;Karangintan;28250
70654;Kertakhanyar;28250
70853;Kurau;28250
70600;MARTAPURA;27250
70674;Pengaron;29250
70800;PLAIHARI;28250
70673;Simpangempatmartapura;29250
70653;Sungaitabuk;28250
70882;Tajaupecah;29250
70861;Takisung;29250
71200;Kandangan;29500
71162;Margasari;31250
71400;Amuntai;30000
71464;Awayan;31000
71300;BARABAI;31000
71463;Batumandi;31000
71381;Birayang;31000
71572;Haruai;32000
71363;Haruyan;31000
71391;Ilung;31000
71465;Juai;32000
71362;Kasarangan;31000
71552;Klua;31000
71461;Lampihong;30000
71571;Murungpudak;31000
71371;Pagat;31000
71462;PARINGIN;31000
71352;Pendawanbaru;31000
71500;TANJUNGTABALONG;31000
71452;Telagaselaba;30000
72200;Batulicin;32500
72276;Angsana;32500
72152;Berangaskotabaru;34500
72100;KOTABARUPULAULAUT;34500
72273;Pagatan;32500
72161;Pantai;34500
72274;Sebamban-I;34500
72271B1;Batulicin Mantewe;34500
73000;Palangkaraya;31000
73563;Bawan;33000
74400;KASUNGAN;32000
74465;Kerengpangi;31000
73221;Tangkiling;32000
73700;Buntok;35500
73652;Ampah;35500
73752;Pendang;36500
73753;Tabakkanilan;36500
73600;TAMIANGLAYANG;37500
74100;Pangkalanbun;33000
74183;Karangmulia;35000
74181;Kumai;33000
74172;SUKAMARA;35000
74182;Sungairangit;34000
74300;Sampit;33000
74354;Cempakamulia;35000
74353;Kotabesi;34000
74363;Samuda;34000
75000;Samarinda;35000
75381;Anggana;35000
75391;Loajanan;36000
75262;Manunggaljaya;35000
75382;Muarabadak;37000
75261;Muarajawa;37000
75243;Palaran;36000
75132;Samarindaseberang;35000
75254;Sangasanga;36000
75119;Bengkuring;36000
75115;Sultan Sulaiman;36000
75592B1;Samarinda Loaduri;36000
75300;Bontang;38500
75387;SANGATTA;40500
75611;Swargabara;40500
75500;Tenggarong;40500
75561;Kotabangun;42250
75571;Loakulu;42250
75562;Muaramuntai;42250
75563;Penyinggahan;42250
75552;Sebulu;42250
76100;Balikpapan;28500
76252;Batukajang;31500
76127;Karangjoang;28500
76146;Kenangan;28500
76281;Kuaro;31500
76282;Longikis;30500
76283;Longkali;31500
76116;Manggarkalimantan;28500
76253;Muarakomam;31500
76141;PENAJAM;30500
76148;Sepaku;30500
76200;TANAHGROGOT;32500
76284;Waru;30500
77100;Tarakan;38500
77252;Tanjungpalas;39250
77200;TANJUNGSELOR;40250
77152;Tidengpale;40250
77300;Tanjungredeb;44500
77353;Labanan;45500
77351;Telukbayur;45500
78000;Pontianak;23000
78354;Anjungan;23000
78364;Darit;26000
78351;Jungkat;24000
78363;Karangan;26000
78384;Kubu;24000
78355;Mandor;25000
78900;MEMPAWAH;25000
78362;Menjalin;26000
78357;NGABANG;26000
78385;Padangtikar;26000
78356;Pahauman;26000
78382;Rasaujaya;24000
78393;Sungaiambawang;24000
78381;Sungaikakap;23000
78371;Sungaikunyit;25000
78353;Sungaipinyuh;25000
78383;Telukpakedai;26000
78392;Terentang;25000
78361;Toho;25000
78500;Sanggau;33500
78556;Balaikarangan;35250
78591;Balaisebut;35250
78563;Batangtarang;35250
78552;Bonti;34250
78557;Entikong;34250
78581;Kedukul;34250
78553;Kembayan;35250
78571;Meliau;34250
78561;Pusatdamai;33250
78582;SEKADAU;35250
78562;Sosok;34250
78600;Sintang;34500
78692;Nangajetak;35500
78653;Nangamerakai;35500
78672;NANGAPINOH;36500
78662;Nangasepauk;36500
78773;Nangasilat;36500
78655;Pandansintang;35500
78800;Ketapang;33000
78871;Sandai;34000
78874;Tumbangtiti;35000
79100;Singkawang;31500
79453;Pemangkat;32250
79281;Samalantan;32250
79400;SAMBAS;33250
79465;Sekura;33250
79452;Selakau;31250
79271;Sungaiduri;33250
79461;Tebas;33250
95000;Manado;42500
95371;AIRMADIDI;42500
95354;AMURANG;44500
95697;Belang;44500
95881;Beo;45500
95500;BITUNG;43500
95683;Eris;43500
95883;Essang;45500
95544;Girian;43500
95682;Kakas;43500
95372;Kauditan;43500
95692;Kawangkoan;43500
95684;Kombi;44500
95694;Langowan;44500
95375;Likupang;43500
95871;Lirung;45500
95853;Manganitu;44500
95356;Motoling;44500
95856;Petta;43500
95361;Pineleng;42500
95695;Ratahan;44500
95681;Remboken;43500
95691;Sonder;43500
95863;Tagulandang;44500
95800;TAHUNA;44500
95855;Tamako;43500
95351;Tanahwangko;43500
95353;Tareran;44500
95373;Tatelu;42500
95355;Tenga;44500
95696;Tombatu;44500
95400;TOMOHON;42500
95693;Tompaso;43500
95600;TONDANO;43500
95352;Tumpaan;44500
95700;Kotamobagu;45500
95772;Imandi;46500
95752;Inobonto;46500
95761;Lolak;47500
95771;Lolayan;45500
95762;Maelang;47500
95781;Modayag;45500
95358;Modoinding;46500
95774;Molibagu;47500
95773;Mopuya;47500
95753;Poigar;46500
95357;Tompasobaru;47500
96100;Gorontalo;39000
96271;Batudaa;39000
96262;Bongodua;39000
96251;Isimu;41000
96252;Kwandang;41000
96200;LIMBOTO;41000
96266;MARISA;41000
96265;Paguat;41000
96261;Paguyaman;41000
96182;Tapa;41000
96263;TILAMUTA;40000
94000;Palu;38000
94374;Ampibabo;40000
94362;Binangga;38000
94364;Biromaru;38000
94351;Donggala;40000
94371;PARIGI;40000
94352;Tawaeli;38000
94353;Toaya;39000
94372;Tolai;40000
94354;Tompe;40000
94361B1;Towua;40000
94365B1;Palolo;40000
94700;Luwuk;40500
94762;Batui;42250
94752;Pagimana;42250
94772;Tangeban;42250
94763;Tirtakencana;42250
93000;Kendari;39000
93372;Ambaipua;40000
93563;Anaiwoi;39000
93653;Kambara;39000
93771;KASIPUTE;39000
93573;Ladongi;40000
93393;Langara;40000
93391;Moramo;41000
93571;Mowewe;41000
93354;Pohara;41000
93562;Pomalaa;39000
93381;Punggaluku;41000
93600;RAHA;41000
93352;Tinobu;41000
93351;Toronipa;39000
93400;UNAAHA;41000
93461;Wawotobi;41000
93700;Baubau;52000
93754;Banabungi;53000
93761;Lombe;53000
93755;Mataompana;53000
93762;Mawasangka;53000
93753;Sampolawa;53000
90000;Makassar;27500
90561;Bantimurung;28500
92172;Borongloe;27500
90651;Bungoro;29500
90562;Camba;29500
92174;Malino;29500
90500;MAROS;28500
90600;PANGKAJENE;28500
90655;Segeri;29500
92100;SUNGGUMINASA;27500
92200;TAKALAR;28500
92153;Tamallaeng;28500
90662;Tonasa;28500
91100;Parepare;34000
91671;Amparita;34750
90700;BARRU;35750
91752;Cakke;35750
91700;ENREKANG;35750
91761;Maroangin;34750
91261;Mattirosompe;34750
90753;Palanro;33750
91253;Pekkabata;35750
91200;PINRANG;34750
91651;Rappang;34750
91681;Tanrutedong;35750
91254;Tuppu;35750
91500;Mamuju;37000
91561;Kalukku;38000
91453;Malunda;39000
91900;Palopo;36500
91951;Batusitanduk;36250
91994;Belopa;38250
91966;Bonebone;38250
91800;MAKALE;38250
91961;Masamba;38250
91871;Mebali;38250
91993;Padangsappa;37250
91890;Rantepao;38250
91955;Sabbangluwu;38250
91963;Sukamaju;38250
91995B1;Bajo;38250
92500;Bulukumba;33500
92400;BANTAENG;34500
92661;Bikeru;34500
92300;JENEPONTO;35500
92600;SINJAI;34500
92351;Tamalatea;35500
92571;Tanahberu;34500
92552;Tanete;33500
92652B1;Bulukumba Togotogo;35500
92361B1;Bulukumba Lappa;35500
92614B1;Bulukumba Manimpahoi;35500
92700;Watampone;35000
90871;Cabenge;36750
92766;Camming;35750
92763;Leppangeng;35750
92773;Mare;35750
90991;Paria;36750
92755;Pompanua;35750
90900;SENGKANG;36750
92762;Tacippi;34750
90800;WATANSOPPENG;36750
80000;Denpasar;18500
80352;Blahkiuh;18500
80364;Bukitungasan;18500
80365;Kerobokan;19500
80361;Kuta;18500
80351;Mengwi;18500
80363;Nusadua;18500
80353;Petang;19500
80354;Sempidi;18500
80362;Tubanbadung;18500
80365B1;Denpasar Dalung;18500
80500;Gianyar;20000
80852;Abang;21750
80800;AMLAPURA;21750
80600;BANGLI;19750
80752;Banjarangkan;19750
80861;Bebandem;21750
80581;Blahbatuh;19750
80761;Dawan;19750
80652;Kintamani;20750
80853;Kubuamlapura;21750
80871;Manggis;20750
80872;Padangbai;19750
80572;Payangan;20750
80863;Rendang;20750
80771;Sampalan;19750
80862;Selat;21750
80700;SEMARAPURA;21750
80582;Sukawati;19750
80661;Susut;19750
80552;Tampaksiring;19750
80561;Tegallalang;19750
80671;Tembuku;19750
80571;Ubud;19750
81100;Singaraja;26000
81152;Banjarsingaraja;26000
81154;Busungbiu;27000
81155;Grokgak;27000
81172;Kubutambahan;28000
81161;Pancasari;27000
81171;Sawan;28000
81153;Seririt;26000
81173;Tejakula;28000
81155B1;Singaraja Pamuteran;28000
82100;Tabanan;26000
82162;Bajera;26000
82191;Baturiti;26000
82161;Kerambitan;26000
82181;Marga;26000
82252;Melaya;28000
82200;NEGARA;28000
82262;Pekutatan;27000
82152;Penebel;28000
82163;Pupuan;27000
82261;Tegalcangkring;28000
82164B1;Tabanan Selemadegbarat;26000
83000;Mataram;21000
83354;Anyar;23000
83572;Batujai;22000
83363;Gerung;21000
83353;Gondang;22000
83351;Gunungsari;21000
83554;Janapria;22000
83362;Kedirimataram;21000
83553;Kopang;22000
83361;Labuapi;21000
83364;Lembar;22000
83552;Mantang;22000
83581;Mujur;22000
83371;Narmada;21000
83500;PRAYA;21000
83562;Pringgarata;21000
83365;Sekotong;22000
83355;Senggigi;21000
83573;Sengkol;22000
83352;Tanjung;21000
83561;Ubung;21000
83600;Selong;34500
83653;Aikmel;34500
83672;Keruak;34500
83655;Labuhanlombok;35500
83661;Masbagik;34500
83654;Pringgabaya;35500
83671;Sakra;34500
83656;Sambelia;36500
83662;Sikur;34500
83652;Sukamulia;34500
83663;Terara;34500
83675B1;Selong Labuhanhaji;34500
84100;Bima;44500
84162;Bajo;45500
84173;Belo;44500
84200;DOMPU;46500
84271;Huu;46500
84181;Maria;44500
84153;Nipa;45500
84182;Sape;45500
84161;Sila;45500
84172;Tangga;44500
84171;Tente;44500
84262B1;Bima Manggelewa;45500
84300;Sumbawabesar;32500
84353;Alas;34250
84384;Empang;34250
84382;Lapelapok;33250
84372;Lenangguar;34250
84381;Moyo;32250
84383;Plampang;34250
84371;Semamung;32250
84361;Semongkat;32250
84352;Utanrhee;33250
85000;Kupang;43500
85363;Camplong;45500
85367;Oekabiti;44500
85362;Oesao;44500
85391;Seba;43500
85361;Tarus;43500
85352;Tenau;43500
85500;Soe;53500
85552;Kapan;54500
85600;KEFAMENANU;55500
85571;Nikiniki;54500
85573;Oinlasi;54500
85562;Panite;55500
85700;Atambua;53500
85752;Atapupu;53500
85763;Besikama;55500
85762;Betun;55500
85761;Boas;54500
85772;Weluli;54500
86100;Maumere;54000
86171;Bola;54750
86253;Boru;55750
86181;Kewapante;53750
86161;Lela;53750
86153;Paga;54750
86183;Talibura;55750
86300;Ende;54000
86472;Aesesa;55750
86462;Boawae;55750
86371;Detusoko;54750
86381;Maurole;55750
86352;Nangapanda;54750
86372;Wolowaru;55750
87100;Waingapu;54000
87152;Lewa;55750
87181;Melolo;55750
87300;WAIBAKUL;55750
97000;Ambon;43000
97572;Airbuaya;44000
97594;Geser;44000
97581;Hitu;44000
97566;Kairatu;45000
97573;Leksula;44000
97574;Mako;44000
97593;Naira;44000
97591;Pelauw;44000
97592;Saparua;44000
97582;Tulehu;44000
97600;Tual;50500
97700;Ternate;46000
97751;Pulauternate;46000
99000;Jayapura;66500
99351;Abepura;66500
99368;Arso;68500
99353;Depapre;68500
99361;Genyem;68500
99352;Sentani;67500
99358;Waena;66500
99500;WAMENA;67500
98100;Biak;89000
98152;Bosnik;89000
98153;Korem;89000
98171;Yemburwo;91000
98300;Manokwari;94500
98353;Oransbari;96250
98356;Prafi;96250
98352;Warmare;95250
98400;Sorong;66500
98418;Aimas;67500
98451;Sorongdoom;66500
98800;Nabire;103000
98851;Kalibumi;103000
99600;Merauke;90500
99656;Kurik;92500
99662;Mindiptana;92500
99900;Timika;74500
99920;Kualakencana;75500
