kategori_id;nama;parent_id;sort_order;status;status_delete;date_added;date_modified
108;Psikologi Remaja;1;;2;0;2017-05-23;2017-05-23
123;Hukum dan Kriminalitas;1;;2;0;2017-05-23;2017-05-23
122;Buku Sekolah;1;;2;0;2017-05-23;2017-05-23
121;Komputer dan Internet;1;;2;0;2017-05-23;2017-05-23
115;Ekonomi;1;;2;0;2017-05-23;2017-05-23
113;Sains dan Teknologi;1;;2;0;2017-05-23;2017-05-23
112;Sejarah;1;;2;0;2017-05-23;2017-05-23
109;Fiksi Indonesia;1;;2;0;2017-05-23;2017-05-23
133;Parenting dan Keluarga;1;;2;0;2017-05-23;2017-05-23
134;Manajemen dan Kepemimpinan;1;;2;0;2017-05-23;2017-05-23
135;Bisnis;1;;2;0;2017-05-23;2017-05-23
136;Pendidikan dan Psikologi;1;;2;0;2017-05-23;2017-05-23
137;Hobi dan Kreativitas;1;;2;0;2017-05-23;2017-05-23
138;Non-Fiksi;1;;2;0;2017-05-23;2017-05-23
139;Biografi dan Memoar;1;;2;0;2017-05-23;2017-05-23
140;Kehamilan;1;;2;0;2017-05-23;2017-05-23
141;Wanita;1;;2;0;2017-05-23;2017-05-23
142;Diet dan Kesehatan;1;;2;0;2017-05-23;2017-05-23
143;Kesehatan;1;;2;0;2017-05-23;2017-05-23
144;Humor;1;;2;0;2017-05-23;2017-05-23
148;Roman;1;;2;0;2017-05-23;2017-05-23
149;Fiksi (semua);1;;2;0;2017-05-23;2017-05-23
150;Fiksi Indonesia (dewasa);1;;2;0;2017-05-23;2017-05-23
151;Fiksi Terjemahan;1;;2;0;2017-05-23;2017-05-23
152;Kisah;1;;2;0;2017-05-23;2017-05-23
153;Kumpulan Cerpen;1;;2;0;2017-05-23;2017-05-23
155;Novel Dewasa;1;;2;0;2017-05-23;2017-05-23
157;Novel Fantasi;1;;2;0;2017-05-23;2017-05-23
158;Novel Islami;1;;2;0;2017-05-23;2017-05-23
159;Novel Misteri;1;;2;0;2017-05-23;2017-05-23
161;Novel;1;;2;0;2017-05-23;2017-05-23
162;Komik ;1;;2;0;2017-05-23;2017-05-23
163;Graphic Novel;1;;2;0;2017-05-23;2017-05-23
164;Boneka Muslimah;1;;2;0;2017-05-23;2017-05-23
165;Alfabet & Numeric;1;;2;0;2017-05-23;2017-05-23
166;Balok;1;;2;0;2017-05-23;2017-05-23
167;Bentuk Geometri;1;;2;0;2017-05-23;2017-05-23
169;Hijaiyah;1;;2;0;2017-05-23;2017-05-23
170;Mainan Kain;1;;2;0;2017-05-23;2017-05-23
172;Maze dan Wire Game;1;;2;0;2017-05-23;2017-05-23
173;Playboard;1;;2;0;2017-05-23;2017-05-23
174;Puzzle 3D;1;;2;0;2017-05-23;2017-05-23
175;Puzzle Gambar;1;;2;0;2017-05-23;2017-05-23
179;Busana Muslim;1;;2;0;2017-05-23;2017-05-23
180;Koko;1;;2;0;2017-05-23;2017-05-23
181;Koko Kemeja;1;;2;0;2017-05-23;2017-05-23
182;Mukena;1;;2;0;2017-05-23;2017-05-23
183;Peci;1;;2;0;2017-05-23;2017-05-23
184;Jilbab / Hijab;1;;2;0;2017-05-23;2017-05-23
185;Sejadah;1;;2;0;2017-05-23;2017-05-23
186;Heroes of Olympus;1;;2;0;2017-05-23;2017-05-23
187;Diagnostic and Statistical Manual of Mental Disorder;1;;2;0;2017-05-23;2017-05-23
189;Diary of a Wimpy Kid;1;;2;0;2017-05-23;2017-05-23
190;Kapian Gre Exam Premiere Live;1;;2;0;2017-05-23;2017-05-23
191;Bradygames Strategy Guide;1;;2;0;2017-05-23;2017-05-23
195;Manajemen;1;;2;0;2017-05-23;2017-05-23
198;Epen Quran;1;;2;0;2017-05-23;2017-05-23
199;Jam Digital;1;;2;0;2017-05-23;2017-05-23
200;Quran Tablet;1;;2;0;2017-05-23;2017-05-23
201;Smartphone quran;1;;2;0;2017-05-23;2017-05-23
203;Cerita Nabi;1;;2;0;2017-05-23;2017-05-23
204;Cerita Sahabat;1;;2;0;2017-05-23;2017-05-23
205;Kemandirian Anak;1;;2;0;2017-05-23;2017-05-23
206;Doa-doa;1;;2;0;2017-05-23;2017-05-23
207;Kisah Teladan;1;;2;0;2017-05-23;2017-05-23
208;Mengenal Angka;1;;2;0;2017-05-23;2017-05-23
209;Mengenal Huruf;1;;2;0;2017-05-23;2017-05-23
210;Mengenal Huruf Hijaiyyah;1;;2;0;2017-05-23;2017-05-23
212;Boneka Muslimah Arrosa;1;;2;0;2017-05-23;2017-05-23
213;Boneka Tangan;1;;2;0;2017-05-23;2017-05-23
214;Game Khusus, Hobi, dan Barang Koleksi;1;;2;0;2017-05-23;2017-05-23
215;Kerajinan Tangan;1;;2;0;2017-05-23;2017-05-23
216;Mainan Elektronik ;1;;2;0;2017-05-23;2017-05-23
217;Preschool Toys;1;;2;0;2017-05-23;2017-05-23
218;Puzzle;1;;2;0;2017-05-23;2017-05-23
219;Sain dan Penemuan;1;;2;0;2017-05-23;2017-05-23
223;Studi Keagamaan;1;;2;0;2017-05-23;2017-05-23
225;Kalam;1;;2;0;2017-05-23;2017-05-23
226;Kitab Kuning;1;;2;0;2017-05-23;2017-05-23
227;Spiritualitas;1;;2;0;2017-05-23;2017-05-23
228;Sejarah Islam;1;;2;0;2017-05-23;2017-05-23
229;Kecil - kecil Punya Karya ( KKPK );1;;2;0;2017-05-23;2017-05-23
230;Penulis Cilik Punya Karya ( PCPK );1;;2;0;2017-05-23;2017-05-23
231;Pink Berry Club ( PBC);1;;2;0;2017-05-23;2017-05-23
232;Fantasteens;1;;2;0;2017-05-23;2017-05-23
233;Buku bergambar;1;;2;0;2017-05-23;2017-05-23
234;Board Books;1;;2;0;2017-05-23;2017-05-23
235;Buku Puzzle;1;;2;0;2017-05-23;2017-05-23
236;Komik;1;;2;0;2017-05-23;2017-05-23
237;Akuntansi ;1;;2;0;2017-05-23;2017-05-23
238;Ekonomi ;1;;2;0;2017-05-23;2017-05-23
239;Finance;1;;2;0;2017-05-23;2017-05-23
240;Investasi;1;;2;0;2017-05-23;2017-05-23
241;Manajemen dan Kepemimpinan;1;;2;0;2017-05-23;2017-05-23
242;Pemasaran dan Penjualan;1;;2;0;2017-05-23;2017-05-23
243;Perilaku Organisasi;1;;2;0;2017-05-23;2017-05-23
244;Perpajakan;1;;2;0;2017-05-23;2017-05-23
245;Usaha Kecil & Kewirausahaan;1;;2;0;2017-05-23;2017-05-23
246;Film;1;;2;0;2017-05-23;2017-05-23
247;Musik;1;;2;0;2017-05-23;2017-05-23
248;Puzzle dan Permainan ;1;;2;0;2017-05-23;2017-05-23
249;Seni Pertunjukan ;1;;2;0;2017-05-23;2017-05-23
250;Bisnis;1;;2;0;2017-05-23;2017-05-23
251;Ekonomi ;1;;2;0;2017-05-23;2017-05-23
252;Kepemimpinan;1;;2;0;2017-05-23;2017-05-23
253;Keuangan;1;;2;0;2017-05-23;2017-05-23
254;Pemasaran dan Penjualan;1;;2;0;2017-05-23;2017-05-23
255;Petualangan;1;;2;0;2017-05-23;2017-05-23
256;Rekreasi dan Wisata;1;;2;0;2017-05-23;2017-05-23
257;Religi;1;;2;0;2017-05-23;2017-05-23
258;Tokoh Muslim;1;;2;0;2017-05-23;2017-05-23
259;Biografi dan Memoar;1;;2;0;2017-05-23;2017-05-23
260;Antropologi;1;;2;0;2017-05-23;2017-05-23
261;Arkeologi ;1;;2;0;2017-05-23;2017-05-23
262;Filsafat;1;;2;0;2017-05-23;2017-05-23
263;Politik & Pemerintahan;1;;2;0;2017-05-23;2017-05-23
264;Ilmu Sosial;1;;2;0;2017-05-23;2017-05-23
265;Sosiologi;1;;2;0;2017-05-23;2017-05-23
266;Psikologi;1;;2;0;2017-05-23;2017-05-23
267;Novel Anak;1;;2;0;2017-05-23;2017-05-23
268;Novel Dewasa;1;;2;0;2017-05-23;2017-05-23
269;Novel Fantasi;1;;2;0;2017-05-23;2017-05-23
270;Novel Islami;1;;2;0;2017-05-23;2017-05-23
271;Novel Misteri;1;;2;0;2017-05-23;2017-05-23
272;Aplikasi dan Software;1;;2;0;2017-05-23;2017-05-23
273;Digital Photografi;1;;2;0;2017-05-23;2017-05-23
274;Graphics and Design;1;;2;0;2017-05-23;2017-05-23
275;Hardware;1;;2;0;2017-05-23;2017-05-23
276;Komputer-Umum;1;;2;0;2017-05-23;2017-05-23
277;Multimedia;1;;2;0;2017-05-23;2017-05-23
278;Pemprograman;1;;2;0;2017-05-23;2017-05-23
279;website ;1;;2;0;2017-05-23;2017-05-23
280;Agrobisnis;1;;2;0;2017-05-23;2017-05-23
281;Arsitektur dan Desain Interior;1;;2;0;2017-05-23;2017-05-23
282;Fotografi;1;;2;0;2017-05-23;2017-05-23
283;Jasa Boga;1;;2;0;2017-05-23;2017-05-23
284;Jurnalis;1;;2;0;2017-05-23;2017-05-23
285;Keterampilan dan Desain;1;;2;0;2017-05-23;2017-05-23
286;Peluang Usaha;1;;2;0;2017-05-23;2017-05-23
287;Perkebunan-Pertanian-Perikanan;1;;2;0;2017-05-23;2017-05-23
288;Peternakan;1;;2;0;2017-05-23;2017-05-23
289;Tanaman & Taman;1;;2;0;2017-05-23;2017-05-23
290;Diet;1;;2;0;2017-05-23;2017-05-23
291;Gizi dan Nutrisi;1;;2;0;2017-05-23;2017-05-23
292;Kecantikan;1;;2;0;2017-05-23;2017-05-23
293;Kesehatan Anak;1;;2;0;2017-05-23;2017-05-23
294;Kesehatan Pria;1;;2;0;2017-05-23;2017-05-23
295;Kesehatan Wanita;1;;2;0;2017-05-23;2017-05-23
296;Latihan dan Kebugaran;1;;2;0;2017-05-23;2017-05-23
297;Pengobatan Alternatif;1;;2;0;2017-05-23;2017-05-23
298;Olah Raga dan Outdoor;1;;2;0;2017-05-23;2017-05-23
299;Kamus;1;;2;0;2017-05-23;2017-05-23
300;Kamus;1;;2;0;2017-05-23;2017-05-23
301;Pelajaran Sekolah SD;1;;2;0;2017-05-23;2017-05-23
302;Pelajaran Sekolah SMP;1;;2;0;2017-05-23;2017-05-23
303;Pelajaran Sekolah SMA;1;;2;0;2017-05-23;2017-05-23
304;Universitas;1;;2;0;2017-05-23;2017-05-23
305;Sekolah dan Pengajaran;1;;2;0;2017-05-23;2017-05-23
306;Persiapan Tes;1;;2;0;2017-05-23;2017-05-23
307;Bahasa dan Tata Bahasa;1;;2;0;2017-05-23;2017-05-23
308;Penulisan, Penelitian, dan Penerbitan;1;;2;0;2017-05-23;2017-05-23
309;Atlas dan Map;1;;2;0;2017-05-23;2017-05-23
310;Arsitektur ;1;;2;0;2017-05-23;2017-05-23
311;Decorative Arts and Design ;1;;2;0;2017-05-23;2017-05-23
312;Desain Grafis ;1;;2;0;2017-05-23;2017-05-23
313;Fotografi ;1;;2;0;2017-05-23;2017-05-23
314;Koleksi, Katalog, dan Exhibitions ;1;;2;0;2017-05-23;2017-05-23
315;Gaya Hidup;1;;2;0;2017-05-23;2017-05-23
316;Lukisan;1;;2;0;2017-05-23;2017-05-23
317;Menggambar;1;;2;0;2017-05-23;2017-05-23
318;Seni Pertunjukan;1;;2;0;2017-05-23;2017-05-23
319;Ilmu Pertanian;1;;2;0;2017-05-23;2017-05-23
320;Arkeologi;1;;2;0;2017-05-23;2017-05-23
321;Astronomi dan Ruang Angkasa ;1;;2;0;2017-05-23;2017-05-23
322;Biological Sciences ;1;;2;0;2017-05-23;2017-05-23
323;Kimia;1;;2;0;2017-05-23;2017-05-23
324;Ilmu Bumi ;1;;2;0;2017-05-23;2017-05-23
325;Lingkungan;1;;2;0;2017-05-23;2017-05-23
326;Evolution ;1;;2;0;2017-05-23;2017-05-23
327;Percobaan, Instrumen, dan Pengukuran;1;;2;0;2017-05-23;2017-05-23
328;Sejarah dan Filsafat  ;1;;2;0;2017-05-23;2017-05-23
329;Matematika ;1;;2;0;2017-05-23;2017-05-23
330;Nature dan Ekologi;1;;2;0;2017-05-23;2017-05-23
331;Fisika;1;;2;0;2017-05-23;2017-05-23
332;Referensi;1;;2;0;2017-05-23;2017-05-23
333;Penelitian;1;;2;0;2017-05-23;2017-05-23
334;Sains untuk Anak-Anak ;1;;2;0;2017-05-23;2017-05-23
335;Animals;1;;2;0;2017-05-23;2017-05-23
336;Anthropology-sociology;1;;2;0;2017-05-23;2017-05-23
337;Archaeology-History;1;;2;0;2017-05-23;2017-05-23
338;Architecture;1;;2;0;2017-05-23;2017-05-23
339;Art Design;1;;2;0;2017-05-23;2017-05-23
340;Art-Craft and Fashion;1;;2;0;2017-05-23;2017-05-23
341;Automotive-Hobby and Lifestyle;1;;2;0;2017-05-23;2017-05-23
342;Business;1;;2;0;2017-05-23;2017-05-23
343;Children;1;;2;0;2017-05-23;2017-05-23
344;Computer;1;;2;0;2017-05-23;2017-05-23
345;Cooking;1;;2;0;2017-05-23;2017-05-23
346;Dictionary;1;;2;0;2017-05-23;2017-05-23
347;Drawing & Painting;1;;2;0;2017-05-23;2017-05-23
348;Electro;1;;2;0;2017-05-23;2017-05-23
349;Fiction and Non Fiction;1;;2;0;2017-05-23;2017-05-23
350;General;1;;2;0;2017-05-23;2017-05-23
351;Language and Linguistics;1;;2;0;2017-05-23;2017-05-23
352;Law and Crime;1;;2;0;2017-05-23;2017-05-23
353;Literature and Journal;1;;2;0;2017-05-23;2017-05-23
354;Management;1;;2;0;2017-05-23;2017-05-23
355;Parenting-Health and Sex;1;;2;0;2017-05-23;2017-05-23
356;Photography;1;;2;0;2017-05-23;2017-05-23
357;Psychology and Gender;1;;2;0;2017-05-23;2017-05-23
358;Public Relation and Advertising;1;;2;0;2017-05-23;2017-05-23
359;Religion;1;;2;0;2017-05-23;2017-05-23
378;Motivasi;1;;2;0;2017-05-23;2017-05-23
376;Pernikahan dan Umum;1;;2;0;2017-05-23;2017-05-23
375;Kesehatan Keluarga;1;;2;0;2017-05-23;2017-05-23
374;Kebutuhan Khusus;1;;2;0;2017-05-23;2017-05-23
373;Jodoh;1;;2;0;2017-05-23;2017-05-23
372;Hubungan Keluarga;1;;2;0;2017-05-23;2017-05-23
370;Hamil dan Melahirkan;1;;2;0;2017-05-23;2017-05-23
369;Aktifitas Keluarga;1;;2;0;2017-05-23;2017-05-23
368;Hikmah;1;;2;0;2017-05-23;2017-05-23
367;Zikir dan Doa;1;;2;0;2017-05-23;2017-05-23
366;Wacana Islam;1;;2;0;2017-05-23;2017-05-23
365;Tasawuf;1;;2;0;2017-05-23;2017-05-23
364;Fiqih dan Muamalat;1;;2;0;2017-05-23;2017-05-23
363;Fiqih dan Muamalat;1;;2;0;2017-05-23;2017-05-23
362;Dialog Agama;1;;2;0;2017-05-23;2017-05-23
361;Al Quran dan Hadits;1;;2;0;2017-05-23;2017-05-23
360;Akhlaq;1;;2;0;2017-05-23;2017-05-23
379;PCPK;1;;2;0;2017-05-23;2017-05-23
380;Indonesia;1;;2;0;2017-05-23;2017-05-23
381;Referensi;1;;2;0;2017-05-23;2017-05-23
383;Paket Cerita Anak;1;;2;0;2017-05-23;2017-05-23
384;Lain-lain;1;;2;0;2017-05-23;2017-05-23
