kategori_id;nama;url_title;parent_id;sort_order;status;date_added;date_modified
1;Buku 1;buku;0;1;2;2016-08-25;2016-08-25
2;Buku2;buku;0;1;2;2016-08-25;2016-08-25
3;Buku 3;buku;1;1;2;2016-08-25;2016-08-25
4;Buku4;buku;1;1;2;2016-08-25;2016-08-25
5;Buku 5;buku;2;1;2;2016-08-25;2016-08-25
6;Buku6;buku;2;1;2;2016-08-25;2016-08-25
7;Buku 7;buku;2;1;2;2016-08-25;2016-08-25
8;Buku8;buku;2;1;2;2016-08-25;2016-08-25
