parent;level;kode_supplier;nama;kontak;npwp;term;status;status_delete;sort_order
;1;AAS;AKU ANAK SHALEH;-;;;1;0;
;1;ADD;BUKU MURAH;;;;1;0;
;1;AM;AL-MIZAN;;;;1;0;
;1;AR;ARASY;-;;;1;0;
;1;ASM;ALUMNI SMA MAGELANG;-;;;1;0;
;1;BP;BENTANG PUSTAKA;-;;;1;0;
;1;BPDC;BENTANG DISC KHUS;-;;;1;0;
;1;BPWO;BENTANG WRITE OFF;-;;;1;0;
;1;BRK;BARAKA;-;;;1;0;
;1;CS;CANARY;-;;;1;0;
;1;DH;TB. DAHLAN;-;;;1;0;
;1;EDP;EKUATOR DIGITAL PUBLISHING;-;;;1;0;
;1;EDPDC;EKUATOR DISC KHUS;-;;;1;0;
;1;EDPWO;EKUATOR WO;;;;1;0;
;1;ESP;PT.EDUKASI SETARA DUNIA;-;;;1;0;
;1;ESQ;ESQ;-;;;1;0;
;1;EXP;EXPOSE;021-75910212;;;1;0;
;1;EXPM;EXPOSE PUBLIKA;021-75910212;;;1;0;
;1;GE;GANESHA EXACT;-;;;1;0;
;1;GP;GITA PRINT;-;;;1;0;
;1;HI;HIKMAH;-;;;1;0;
;1;HIDC;HIKMAH DISC KHUSUS;-;;;1;0;
;1;HIWO;HIKMAH WRITE OFF;-;;;1;0;
;1;HP;HAYE PUBLISHER;-;;;1;0;
;1;HRK;HARAKAH;-;;;1;0;
;1;HS;HASAN LUTFI;-;;;1;0;
;1;IDC;IIMAN REAL DISC;0;;;1;0;
;1;IIM;IIMAN;-;;;1;0;
;1;IM;IKRAR MANDIRI ABADI;-;;;1;0;
;1;IMN;IIMAN REAL;-;;;1;0;
;1;IMNDC;IIMAN DISC KHUSUS;-;;;1;0;
;1;IMNWO;IIMAN WRITE OFF;-;;;1;0;
;1;KI;KIBLAT;-;;;1;0;
;1;KR;KARISMA;-;;;1;0;
;1;KRDC;KARISMA DISK KHUSUS;-;;;1;0;
;1;LF;LIBRA FOUNDATION;-;;;1;0;
;1;LH;LENTERA HATI;-;;;1;0;
;1;LP;LINGKAR PENA;-;;;1;0;
;1;LPDC;LINGKAR PENA DISC KHUS;-;;;1;0;
;1;LPWO;LINGKAR PENA WRITE OFF;-;;;1;0;
;1;MA;DAR MIZAN;-;;;1;0;
;1;MADC;DAR DISC KHUSUS;-;;;1;0;
;1;MAP;MIZAN APPLICATION PUBLISHER;;;;1;0;
;1;MAWO;DAR WRITE OFF;-;;;1;0;
;1;MDS;MIZAN DIRECT SELLING;-;;;1;0;
;1;MLC;MLC;-;;;1;0;
;1;MLCDC;MLC DISC KHUSUS;-;;;1;0;
;1;MMU;MIZAN MEDIA UTAMA;-;;;1;0;
;1;MMUWO;MIZAN MEDIA UTAMA W.O;-;;;1;0;
;1;MP;MIZAN PUBLISHING;-;;;1;0;
;1;MPDC;MP DISC KHUSUS;-;;;1;0;
;1;MPNET;MIZAN PUBLISHING NETTO;-;;;1;0;
;1;MPUB;MIZAN PUBLIKA;;;;1;0;
;1;MPWO;MP WRITE OFF;-;;;1;0;
;1;MRU;MRUMIA PUBLISHER;021-73884053;;;1;0;
;1;MS;MISYKAT;-;;;1;0;
;1;MT;MUTHAHHARI PRESS;-;;;1;0;
;1;MZH;MIZAN GRAFIKA SARANA;-;;;1;0;
;1;NR ;NOURA BOOKS PUBLISHING;021-78880569;;;1;0;
;1;PL;PELANGI MIZAN;-;;;1;0;
;1;PLT;PELITA;-;;;1;0;
;1;PP;PLOTPOINT;;;;1;0;
;1;PRC;PIRAC;-;;;1;0;
;1;PS;PUSTAKA SETIA;-;;;1;0;
;1;PSAP;PSAP;-;;;1;0;
;1;QM;QUANTUM;-;;;1;0;
;1;QT;QANITA;-;;;1;0;
;1;RC;PT. RINEKA CIPTA;-;;;1;0;
;1;RD;PT. REMAJA ROSDAKARYA;-;;;1;0;
;1;SB;PENERBIT SALAM;-;;;1;0;
;1;SR;SERAMBI;-;;;1;0;
;1;SS;SHOLA STUDIO;-;;;1;0;
;1;TR;TERAJU;-;;;1;0;
;1;TRDC;TERAJU DISC KHUSUS;-;;;1;0;
;1;TRWO;TERAJU WRITE OFF;-;;;1;0;
;1;UF;UFUK PRESS;-;;;1;0;
;1;UP;UFUK PRESS;-;;;1;0;
;1;VS;VISI TELEMATIKA INDONESIA;-;;;1;0;
;1;YS;YASMIN;-;;;1;0;
